var togglereverser = func {
  var r1 = "/controls/engines/engine"; 
  var r2 = "/controls/engines/engine[1]"; 
  var rv1 = "/surface-positions/reverser-pos-norm"; 

  val = getprop(rv1);
  if (val == 0 or val == nil) {
    interpolate(rv1, 1.0, 1.4);  
    setprop(r1,"reverser","true");
    setprop(r2,"reverser", "true");
  } else {
    if (val == 1.0){
      interpolate(rv1, 0.0, 1.4);  
      setprop(r1,"reverser",0);
      setprop(r2,"reverser",0);
    }
  }
}
