## Bombardier CRJ700 series
## Aircraft systems
###########################

## Main systems update loop
var Systems =
{
	loopid: 0,
	init: func
	{
		print("CRJ700 aircraft systems ... initialized");
		Systems.loopid += 1;
		settimer(func Systems.update(Systems.loopid), 0);

		# create crossfeed valve
		var gravity_xflow = aircraft.crossfeed_valve.new(0.5, "controls/fuel/gravity-xflow", 0, 1);
		gravity_xflow.open();
	},
	stop: func
	{
		Systems.loopid += 1;
	},
	reinit: func
	{
		print("CRJ700 aircraft systems ... reinitialized");
		setprop("sim/model/start-idling", 0);
		Systems.stop();
		settimer(func Systems.update(Systems.loopid), 0);
	},
	update: func(loopid)
	{
		if (loopid != Systems.loopid) return;
		engine1.update();
		engine2.update();
		apu1.update();
		update_electrical();
		update_tat();
		eicas_messages_page1.update();
		eicas_messages_page2.update();
		left_wiper.update();
		right_wiper.update();
		rat1.update();
		update_copilot_ints();
		update_pass_signs();
		update_lightmaps();
		if (!props.globals.getNode("sim/crashed").getBoolValue()) settimer(func Systems.update(loopid), 0);
	}
};
setlistener("sim/signals/fdm-initialized", func settimer(Systems.init, 2), 0, 0);
setlistener("sim/signals/reinit", func(v) if (v.getBoolValue()) Systems.reinit(), 0, 0);

## Startup/shutdown functions
var startid = 0;
var startup = func
{
	startid += 1;
	var id = startid;
	setprop("controls/electric/battery-switch", 1);
	setprop("controls/pneumatic/bleed-source", 2);
	setprop("controls/APU/off-on", 1);
	setprop("controls/engines/engine[0]/cutoff", 0);
	setprop("controls/engines/engine[1]/cutoff", 0);
	settimer(func
	{
		if (id == startid)
		{
			engine1.start();
			engine2.start();
			setprop("controls/electric/engine[0]/generator", 1);
			setprop("controls/electric/engine[1]/generator", 1);
			settimer(func
			{
				if (id == startid)
				{
					setprop("controls/APU/off-on", 0);
					setprop("controls/electric/battery-switch", 0);
				}
			}, 7);
		}
	}, 11);
};
var shutdown = func
{
	setprop("controls/engines/engine[0]/cutoff", 1);
	setprop("controls/engines/engine[1]/cutoff", 1);
	setprop("controls/electric/engine[0]/generator", 0);
	setprop("controls/electric/engine[1]/generator", 0);
};
setlistener("sim/model/start-idling", func(v)
{
	var run = v.getBoolValue();
	if (run)
	{
		startup();
	}
	else
	{
		shutdown();
	}
}, 0, 0);

## Instant start for tutorials and whatnot
var instastart = func
{
	setprop("controls/electric/engine[0]/generator", 1);
	setprop("controls/electric/engine[1]/generator", 1);
	setprop("controls/engines/engine[0]/cutoff", 0);
	engine1.start();
	setprop("engines/engine[0]/rpm", 25);
	setprop("controls/engines/engine[1]/cutoff", 0);
	engine2.start();
	setprop("engines/engine[1]/rpm", 25);
};

## Prevent the gear from being retracted on the ground
setlistener("controls/gear/gear-down", func(v)
{
	if (!v.getBoolValue())
	{
		var on_ground = 0;
		foreach (var gear; props.globals.getNode("gear").getChildren("gear"))
		{
			var wow = gear.getNode("wow", 0);
			if (wow != nil and wow.getBoolValue()) on_ground = 1;
		}
		if (on_ground) v.setBoolValue(1);
	}
}, 0, 0);

## Engines at cutoff by default (not specified in -set.xml because that means they will be set to 'true' on a reset)
setprop("controls/engines/engine[0]/cutoff", 1);
setprop("controls/engines/engine[1]/cutoff", 1);

## Wipers
var Wiper =
{
	new: func(inP, outP, onP, pwrP)
	{
		var m = { parents: [Wiper] };
		m.active = 0;
		m.loopid = 0;
		m.ctl_node = props.globals.getNode(inP, 1);
		m.out_node = props.globals.getNode(outP, 1);
		m.on_node = props.globals.getNode(onP, 1);
		m.pwr_node = props.globals.getNode(pwrP, 1);
		return m;
	},
	update: func
	{
		var switch = me.ctl_node.getValue();
		if (me.pwr_node.getValue() >= 15)
		{
			if (switch == 0)
			{
				me.active = 0;
				me.on_node.setBoolValue(0);
			}
			elsif (!me.active)
			{
				me.active = 1;
				var loopid = me.loopid += 1;
				var time = 1 / switch;
				interpolate(me.out_node, 1, time);
				settimer(func if (loopid == me.loopid) interpolate(me.out_node, 0, time), time);
			}
			elsif (me.out_node.getValue() == 0)
			{
				me.active = 0;
			}
		}
		else
		{
			me.on_node.setBoolValue(switch == 0 ? 0 : 1);
		}
	}
};
var left_wiper = Wiper.new("controls/anti-ice/wiper[0]", "surface-positions/left-wiper-pos-norm", "controls/anti-ice/wiper-power[0]", "systems/electrical/outputs/wiper[0]");
var right_wiper = Wiper.new("controls/anti-ice/wiper[1]", "surface-positions/right-wiper-pos-norm", "controls/anti-ice/wiper-power[1]", "systems/electrical/outputs/wiper[1]");

## RAT
var Rat =
{
	new: func(node, trigger_prop)
	{
		var m = { parents: [Rat] };
		m.powering = 0;
		m.node = aircraft.makeNode(node);
		var nodeP = m.node.getPath();
		m.serviceableN = props.globals.initNode(nodeP ~ "/serviceable", 1, "BOOL");
		m.positionN = props.globals.initNode(nodeP ~ "/position-norm", 0, "DOUBLE");
		m.rpmN = props.globals.initNode(nodeP ~ "/rpm", 0, "DOUBLE");
		m.triggerN = aircraft.makeNode(trigger_prop);
		setlistener(m.triggerN, func(v)
		{
			if (v.getBoolValue()) m.deploy();
		}, 0, 0);
		m.deploy_time = 8; # typical RAT deploy time is ~8 seconds
		return m;
	},
	deploy: func
	{
		if (me.serviceableN.getBoolValue()) interpolate(me.positionN, 1, me.deploy_time);
	},
	update: func
	{
		if (me.serviceableN.getBoolValue() and me.positionN.getValue() >= 1)
		{
			# the CRJ's RAT operates at ~7000 to ~12000 RPM
			# "There are two different style Air Driven Generators (ADGs) used on CRJs.
			# One rotates at approximately 7,000 RPM, the other is much higher at 12,000 RPM."
			# see http://www.airliners.net/aviation-forums/tech_ops/read.main/274235/, reply #2
			# the RPM of the RAT begins dropping at 250 KTAS (TOTAL GUESS!)
			# threshold is 15 KTAS (ANOTHER TOTAL GUESS)
			var rpm = aircraft.kias_to_ktas(getprop("velocities/airspeed-kt"), getprop("position/altitude-ft")) * 28 - 15;
			if (rpm >= 7000) rpm = 7000;
			elsif (rpm <= 0) rpm = 0;
			me.rpmN.setDoubleValue(rpm);
		}
		else
		{
			me.rpmN.setDoubleValue(0);
		}
	}
};
var rat1 = Rat.new("systems/ram-air-turbine", "controls/pneumatic/ram-air-turbine");

## Aircraft-specific dialogs
var dialogs =
{
	autopilot: gui.Dialog.new("sim/gui/dialogs/autopilot/dialog", "Aircraft/CRJ700-family/Systems/autopilot-dlg.xml"),
	radio: gui.Dialog.new("sim/gui/dialogs/radio-stack/dialog", "Aircraft/CRJ700-family/Systems/radio-stack-dlg.xml"),
	lights: gui.Dialog.new("sim/gui/dialogs/lights/dialog", "Aircraft/CRJ700-family/Systems/lights-dlg.xml"),
	failures: gui.Dialog.new("sim/gui/dialogs/failures/dialog", "Aircraft/CRJ700-family/Systems/failures-dlg.xml"),
	tiller: gui.Dialog.new("sim/gui/dialogs/tiller/dialog", "Aircraft/CRJ700-family/Systems/tiller-dlg.xml")
};
gui.menuBind("autopilot", "CRJ700.dialogs.autopilot.open();");
gui.menuBind("radio", "CRJ700.dialogs.radio.open();");
