var performance_settings_dialog = gui.Dialog.new("sim/gui/dialogs/airwaveXtreme150/dialog", 
                                   "Aircraft/airwaveXtreme150/Dialogs/performance_settings.xml");

var variometer = gui.Dialog.new("/sim/gui/dialogs/airwaveXtreme150/variometer/dialog",
        "Aircraft/airwaveXtreme150/Dialogs/variometer.xml");
