
#This code is haow to make generic the missile use
var Loading_missile = func(name) {

  var address= "test";
  var NoSmoke = "test2";
  var Explosion = "Aircraft/Mirage-2000/Missiles/MatraMica/explosion.xml";
  var maxdetectionrngnm =0;
  var fovdeg=0;
  var detectionfovdeg=0;
  var trackmaxdeg=0;
  var maxg=0;
  var thrustlbs=0;
  var thrustdurationsec=0;
  var weightlaunchlbs=0;
  var dragcoeff=0;
  var dragarea=0;
  var maxExplosionRange=0;
  var maxspeed=0;
  var life=0;
  var fox="nothing";
  var rail = "true";
  var cruisealt = 0;

 
  if(name =="Matra MICA"){
    #MICA max range 80 km for actual version. ->43 nm.. at mach 4 it's about 59 sec. I put a life of 120, and thurst duration to 3/4 the travel time, and have vectorial thurst (So 27 G more than a similar missile wich have not vectorial thurst)
    address="Aircraft/Mirage-2000/Missiles/MatraMica/MatraMica_smoke.xml";
    NoSmoke="Aircraft/Mirage-2000/Missiles/MatraMica/MatraMica.xml";
    Explosion="Aircraft/Mirage-2000/Missiles/MatraMica/explosion.xml";
    #
    maxdetectionrngnm = 45;                    #<!-- Not real Impact yet-->
    fovdeg =25;                                   #<!-- seeker optical FOV -->
    detectionfovdeg=60;                              # <!-- Search pattern diameter (rosette scan) -->
    trackmaxdeg = 110;                               #<!-- Seeker max total angular rotation -->
    maxg = 27;                                       #<!-- In turn --> 
    thrustlbs=517;                                    # <!-- guess -->
    thrustdurationsec =44;                           #<!-- Mk.36 Mod.7,8 -->
    weightlaunchlbs=216;
    weightwarheadlbs=30;
    dragcoeff=0.065;                                   #<!-- guess; original 0.05-->
    dragarea = 0.056;                                 #<!-- sq ft -->
    maxExplosionRange =50;                             #in meter !!<!--Due to the code, more the speed is important, more we need to have this figure high-->
    maxspeed = 4;                                      #<!-- In Mach -->
    life=120;
    fox="Fox 3";
    rail = "true";
    cruisealt = 0;
  }elsif(name =="AIM120"){
                #AIM 120 max range 72 km for actual version. ->39 nm.. at mach 4 it's about 53 sec. I put a life of 115, and thurst duration oo 3/4 the travel time.
                    address="Aircraft/Mirage-2000/Missiles/AIM-120/AIM-120_smoke.xml";
                    NoSmoke="Aircraft/Mirage-2000/Missiles/AIM-120/AIM-120.xml";
                    #
                    maxdetectionrngnm = 38.8;                         #<!-- Not real Impact yet A little more than the MICA-->
                    fovdeg =25;                                   #<!-- seeker optical FOV -->
                    detectionfovdeg=60;                              # <!-- Search pattern diameter (rosette scan) -->
                    trackmaxdeg = 110;                               #<!-- Seeker max total angular rotation -->
                    maxg = 15;                                       #<!-- In turn less than the MICA, coz it don't have vectorial thurst-->  
                    thrustlbs=701;                                    # <!-- guess -->
                    thrustdurationsec =39;                           #<!-- Mk.36 Mod.7,8 -->
                    weightlaunchlbs=291;
                    weightwarheadlbs=44;
                    dragcoeff=0.088;                                   #<!-- guess; original 0.05-->
                    dragarea = 0.075;                                 #<!-- sq ft -->
                    maxExplosionRange =50;                             #in meter !!<!--Due to the code, more the speed is important, more we need to have this figure high-->
                    maxspeed = 4;                                      #<!-- In Mach -->
                    life=115;
                    fox="Fox 3";
                    rail = "false";
                    cruisealt = 0;

  }elsif(name =="Matra R550 Magic 2"){
                #Magic 2 max range 15 km for actual version. ->8 nm.. at mach 2.7 it's about 16 sec. I put a life of 35, and thurst duration to 3/4 the travel time.
                    address="Aircraft/Mirage-2000/Missiles/MatraR550Magic2/MatraR550Magic2_smoke.xml";
                    NoSmoke="Aircraft/Mirage-2000/Missiles/MatraR550Magic2/MatraR550Magic2.xml";
                    #
                    maxdetectionrngnm = 8;                         #<!-- Not real Impact yet-->
                    fovdeg =25;                                   #<!-- seeker optical FOV -->
                    detectionfovdeg=60;                              # <!-- Search pattern diameter (rosette scan) -->
                    trackmaxdeg = 110;                               #<!-- Seeker max total angular rotation -->
                    maxg = 21;                                       #<!-- In turn --> 
                    thrustlbs=277;                                    # <!-- guess -->
                    thrustdurationsec =12;                           #<!-- Mk.36 Mod.7,8 -->
                    weightlaunchlbs=169;
                    weightwarheadlbs=27;
                    dragcoeff=0.051;                                   #<!-- guess; original 0.05-->
                    dragarea = 0.044;                                 #<!-- sq ft -->
                    maxExplosionRange =40;                             #<!--Due to the code, more the speed is important, more we need to have this figure high-->
                    maxspeed = 2.7;                                      #<!-- In Mach -->
                    life=35;
                    fox="Fox 2";
                    rail = "true";
                    cruisealt = 0;

  }elsif(name =="aim-9"){
                #aim-9 max range 18 km for actual version. ->9 nm.. at mach 2.5 it's about 21 sec. I put a life of 40, and thurst duration to 3/4 the travel time.
                    address="Aircraft/Mirage-2000/Missiles/aim-9/aim-9_smoke.xml";
                    NoSmoke="Aircraft/Mirage-2000/Missiles/aim-9/aim-9.xml";
                    #
                    maxdetectionrngnm = 9;                         #<!-- Not real Impact yet-->
                    fovdeg =25;                                   #<!-- seeker optical FOV -->
                    detectionfovdeg=60;                              # <!-- Search pattern diameter (rosette scan) -->
                    trackmaxdeg = 110;                               #<!-- Seeker max total angular rotation -->
                    maxg = 21;                                       #<!-- In turn --> 
                    thrustlbs=250;                                    # <!-- guess -->
                    thrustdurationsec = 15;                           #<!-- Mk.36 Mod.7,8 -->
                    weightlaunchlbs=191;
                    weightwarheadlbs=20.8;
                    dragcoeff=0.05;                                   #<!-- guess; original 0.05-->
                    dragarea = 0.043;                                 #<!-- sq ft -->
                    maxExplosionRange =40;                             #<!--Due to the code, more the speed is important, more we need to have this figure high-->
                    maxspeed = 2.5;                                      #<!-- In Mach -->
                    life=44;
                    fox="Fox 2";
                    rail = "true";
                    cruisealt = 0;

  }elsif(name =="GBU16"){

                    address="Aircraft/Mirage-2000/Missiles/GBU16/gbu16.xml";
                    NoSmoke="Aircraft/Mirage-2000/Missiles/GBU16/gbu16.xml";
                    #
                    maxdetectionrngnm = 14;                         #<!-- Not real Impact yet-->
                    fovdeg =25;                                   #<!-- seeker optical FOV -->
                    detectionfovdeg=60;                              # <!-- Search pattern diameter (rosette scan) -->
                    trackmaxdeg = 110;                               #<!-- Seeker max total angular rotation -->
                    maxg = 15;                                       
                    thrustlbs=0;                                    # <!-- guess -->
                    thrustdurationsec =0;                           #<!-- Mk.36 Mod.7,8 -->
                    weightlaunchlbs=550;
                    weightwarheadlbs=450;
                    dragcoeff=0.262;                                   #<!-- guess; original 0.05-->
                    dragarea = 0.225;                                 #<!-- sq ft -->
                    maxExplosionRange =40;                             #<!--Due to the code, more the speed is important, more we need to have this figure high-->
                    maxspeed = 1.5;                                      #<!-- In Mach -->
                    life=120;
                    fox="A/G";
                    rail = "false";
                    cruisealt = 0;

    
  }elsif(name =="GBU12"){

                    address="Aircraft/Mirage-2000/Missiles/GBU12/GBU12.xml";
                    NoSmoke="Aircraft/Mirage-2000/Missiles/GBU12/GBU12.xml";
                    #
                    maxdetectionrngnm = 14;                         #<!-- Not real Impact yet-->
                    fovdeg =25;                                   #<!-- seeker optical FOV -->
                    detectionfovdeg=60;                              # <!-- Search pattern diameter (rosette scan) -->
                    trackmaxdeg = 110;                               #<!-- Seeker max total angular rotation -->
                    maxg = 15;                                       #<!-- In turn --> 
                    thrustlbs=0;                                    # <!-- guess -->
                    thrustdurationsec =0;                           #<!-- Mk.36 Mod.7,8 -->
                    weightlaunchlbs=610;
                    weightwarheadlbs=190;
                    dragcoeff=0.209;                                   #<!-- guess; original 0.05-->
                    dragarea = 0.180;                                 #<!-- sq ft -->
                    maxExplosionRange =40;                             #<!--Due to the code, more the speed is important, more we need to have this figure high-->
                    maxspeed = 1.5;                                      #<!-- In Mach -->
                    life=120;
                    fox="A/G";
                    rail = "false";
                    cruisealt = 0;

  }elsif(name =="AGM65"){

                    address="Aircraft/Mirage-2000/Missiles/AGM65/AGM65_smoke.xml";
                    NoSmoke="Aircraft/Mirage-2000/Missiles/AGM65/AGM65.xml";
                    Explosion="Aircraft/Mirage-2000/Missiles/AGM65/explosion.xml";
                    #
                    maxdetectionrngnm = 14;                         #<!-- Not real Impact yet-->
                    fovdeg =25;                                   #<!-- seeker optical FOV -->
                    detectionfovdeg=60;                              # <!-- Search pattern diameter (rosette scan) -->
                    trackmaxdeg = 110;                               #<!-- Seeker max total angular rotation -->
                    maxg = 15;                                       
                    thrustlbs=785;                                    # <!-- guess -->
                    thrustdurationsec =60;                           #<!-- Mk.36 Mod.7,8 -->
                    weightlaunchlbs=400;
                    weightwarheadlbs=200;
                    dragcoeff=0.157;                                   #<!-- guess; original 0.05-->
                    dragarea = 0.135;                                 #<!-- sq ft -->
                    maxExplosionRange =50;                             #<!--Due to the code, more the speed is important, more we need to have this figure high-->
                    maxspeed = 1;                                      #<!-- In Mach -->
                    life=90;
                    fox="A/G";
                    rail = "false";
                    cruisealt = 0;

    
  }elsif(name =="SCALP"){

                    address="Aircraft/Mirage-2000/Missiles/SCALP/SCALP_smoke.xml";
                    NoSmoke="Aircraft/Mirage-2000/Missiles/SCALP/SCALP.xml";
                    #
                    maxdetectionrngnm = 135;                         #<!-- Not real Impact yet-->
                    fovdeg =25;                                   #<!-- seeker optical FOV -->
                    detectionfovdeg=60;                              # <!-- Search pattern diameter (rosette scan) -->
                    trackmaxdeg = 110;                               #<!-- Seeker max total angular rotation -->
                    maxg = 15;                                       #<!-- In turn --> 
                    thrustlbs=1500;                                    # <!-- guess -->
                    thrustdurationsec =1000;                           #<!-- Mk.36 Mod.7,8 -->
                    weightlaunchlbs=1870;
                    weightwarheadlbs=992;
                    dragcoeff=0.75;                                   #<!-- guess; original 0.05-->
                    dragarea = 0.645;                                 #<!-- sq ft -->
                    maxExplosionRange =90;                             #<!--Due to the code, more the speed is important, more we need to have this figure high-->
                    maxspeed = 0.8;                                      #<!-- In Mach -->
                    life=1000;
                    fox="A/G";
                    rail = "false";
                    cruisealt = 100;

  }elsif(name =="Sea Eagle"){
                    address="Aircraft/Mirage-2000/Missiles/SeaEagle/seaeagle_smoke.xml";
                    NoSmoke="Aircraft/Mirage-2000/Missiles/SeaEagle/seaeagle.xml";
                    #
                    maxdetectionrngnm = 134;                         #<!-- Not real Impact yet-->
                    fovdeg =25;                                   #<!-- seeker optical FOV -->
                    detectionfovdeg=60;                              # <!-- Search pattern diameter (rosette scan) -->
                    trackmaxdeg = 110;                               #<!-- Seeker max total angular rotation -->
                    maxg = 15;                                       #<!-- In turn --> 
                    thrustlbs=1000;                                    # <!-- guess -->
                    thrustdurationsec =1000;                           #<!-- Mk.36 Mod.7,8 -->
                    weightlaunchlbs=1320;
                    weightwarheadlbs=505;
                    dragcoeff=0.478;                                   #<!-- guess; original 0.05-->
                    dragarea = 0.411;                                 #<!-- sq ft -->
                    maxExplosionRange =80;                             #<!--Due to the code, more the speed is important, more we need to have this figure high-->
                    maxspeed = 0.8;                                      #<!-- In Mach -->
                    life=1000;
                    fox="A/M";
                    rail = "false";
                    cruisealt = 40;
  }elsif(name =="AIM-54"){
    #aim-54 max range 1884 km for actual version. ->100 nm.. at mach 5 it's about 108 sec. I put a life of 160, and thurst duration to 3/4 the travel time.
    address="Aircraft/Mirage-2000/Missiles/AIM-54/AIM-54_smoke.xml";
    NoSmoke="Aircraft/Mirage-2000/Missiles/AIM-54/AIM-54.xml";
    #
    maxdetectionrngnm = 100;                      # <!-- Not real Impact yet-->
    fovdeg =25;                                   # <!-- seeker optical FOV -->
    detectionfovdeg=60;                           # <!-- Search pattern diameter (rosette scan) -->
    trackmaxdeg = 110;                            # <!-- Seeker max total angular rotation -->
    maxg = 30;                                    # <!-- In turn --> 
    thrustlbs=2722;                               # <!-- guess -->
    thrustdurationsec =81;                        # <!-- Mk.36 Mod.7,8 -->
    weightlaunchlbs=905;
    weightwarheadlbs=135;
    dragcoeff=0.272;                              # <!-- guess; original 0.05-->
    dragarea = 0.234;                             # <!-- sq ft -->
    maxExplosionRange =70;                        # <!--Due to the code, more the speed is important, more we need to have this figure high-->
    maxspeed = 5;                                 # <!-- In Mach -->
    life=160;
    fox="Fox 3";
    rail = "false";
    cruisealt = 100000;
  }elsif(name =="MATRA-R530"){
    #MATRA-R530 max range 20 km for actual version. ->10 nm.. at mach 2.7 it's about 20 sec. I put a life of 30, and thurst duration to 3/4 the travel time.
    address="Aircraft/Mirage-2000/Missiles/MATRA-R530/MATRA-R530_smoke.xml";
    NoSmoke="Aircraft/Mirage-2000/Missiles/MATRA-R530/MATRA-R530.xml";
    #
    maxdetectionrngnm = 10.8;                     # <!-- Not real Impact yet-->
    fovdeg =25;                                   # <!-- seeker optical FOV -->
    detectionfovdeg=60;                           # <!-- Search pattern diameter (rosette scan) -->
    trackmaxdeg = 110;                            # <!-- Seeker max total angular rotation -->
    maxg = 15;                                    # <!-- In turn --> 
    thrustlbs=320;                                # <!-- guess -->  the doc says 17 000 = 83 lbs of thrust...need to readapt all the values.
    thrustdurationsec =20;                        # <!-- Mk.36 Mod.7,8 -->
    weightlaunchlbs=357;
    weightwarheadlbs=55;
    dragcoeff=0.272;                              # <!-- guess; original 0.05-->
    dragarea = 0.234;                             # <!-- sq ft -->
    maxExplosionRange = 40;                       # <!--Due to the code, more the speed is important, more we need to have this figure high-->
    maxspeed = 2.7;                               # <!-- In Mach -->
    life=30;
    fox="Fox 1";
    rail = "false";
    cruisealt = 0;
  }elsif(name =="R74"){
    #MATRA-R530 max range 40 km for actual version. ->21 nm.. at mach 2.5 it's about 47 sec. I put a life of 55, and thurst duration to 3/4 the travel time.
    address="Aircraft/Mirage-2000/Missiles/R74/R-74Smoke.xml";
    NoSmoke="Aircraft/Mirage-2000/Missiles/R74/R-74.xml";
    #
    maxdetectionrngnm = 10.8;                     # <!-- Not real Impact yet-->
    fovdeg =25;                                   # <!-- seeker optical FOV -->
    detectionfovdeg=60;                           # <!-- Search pattern diameter (rosette scan) -->
    trackmaxdeg = 110;                            # <!-- Seeker max total angular rotation -->
    maxg = 25;                                    # <!-- In turn --> 
    thrustlbs=752;                                # <!-- guess -->  the doc says 17 000 = 83 lbs of thrust...need to readapt all the values.
    thrustdurationsec =35;                        # <!-- Mk.36 Mod.7,8 -->
    weightlaunchlbs=214;
    weightwarheadlbs=16;
    dragcoeff=0.06;                               # <!-- guess; original 0.05-->
    dragarea = 0.0552;                            # <!-- sq ft -->
    maxExplosionRange = 40;                       # <!--Due to the code, more the speed is important, more we need to have this figure high-->
    maxspeed = 2.7;                               # <!-- In Mach -->
    life=55;
    fox="Fox 2";
    rail = "false";
    cruisealt = 0;
  }
  #print(address);
  #SetProp
  setprop("controls/armament/missile/address",address);
  setprop("controls/armament/missile/addressNoSmoke",NoSmoke);
  setprop("controls/armament/missile/addressExplosion",Explosion);
  setprop("controls/armament/missile/max-detectionrngnm",maxdetectionrngnm);
  setprop("controls/armament/missile/fov-deg",fovdeg);
  setprop("controls/armament/missile/track-max-deg",trackmaxdeg);
  setprop("controls/armament/missile/thrust-lbs",thrustlbs);
  setprop("controls/armament/missile/max-g",maxg);
  setprop("controls/armament/missile/weight-launch-lbs",weightlaunchlbs);
  setprop("controls/armament/missile/thrust-duration-sec",thrustdurationsec);
  setprop("controls/armament/missile/weight-warhead-lbs",weightwarheadlbs);
  setprop("controls/armament/missile/drag-coeff",dragcoeff);
  setprop("controls/armament/missile/drag-area",dragarea);
  setprop("controls/armament/missile/maxExplosionRange",maxExplosionRange);
  setprop("controls/armament/missile/maxspeed",maxspeed);
  setprop("controls/armament/missile/life",life);
  setprop("controls/armament/missile/fox",fox);
  setprop("controls/armament/missile/rail",rail);
  setprop("controls/armament/missile/cruise_alt",cruisealt);
}
