# =====
# Doors
# =====

crew       = aircraft.door.new("/sim/model/door-positions/crew", 2, 0 );
passenger  = aircraft.door.new("/sim/model/door-positions/passenger", 2, 0 );
stair       = aircraft.door.new("/sim/model/door-positions/stair", 2, 0 )
