
# liveries =========================================================
aircraft.livery.init("Aircraft/Cub/Models/Liveries", "sim/model/livery/name", "sim/model/liverytail/name", "sim/model/liverywing/name", "sim/model/livery/index");

