#############################################################################
# 777 Autopilot Flight Director System
# Syd Adams
#
# speed modes: THR,THR REF, IDLE,HOLD,SPD;
# roll modes : TO/GA,HDG SEL,HDG HOLD, LNAV,LOC,ROLLOUT,TRK SEL, TRK HOLD,ATT;
# pitch modes: TO/GA,ALT,V/S,VNAV PTH,VNAV SPD,VNAV ALT,G/S,FLARE,FLCH SPD,FPA;
# FPA range  : -9.9 ~ 9.9 degrees
# VS range   : -8000 ~ 6000
# ALT range  : 0 ~ 50,000
# KIAS range : 100 ~ 399
# MACH range : 0.40 ~ 0.95
#
#############################################################################

#Usage : var afds = AFDS.new();

var copilot = func(msg) { setprop("/sim/messages/copilot",msg);}

var AFDS = {
	new : func{
		var m = {parents:[AFDS]};

		m.spd_list=["","THR","THR REF","HOLD","IDLE","SPD"];

		m.roll_list=["","HDG SEL","HDG HOLD","LNAV","LOC","ROLLOUT",
		"TRK SEL","TRK HOLD","ATT","TO/GA"];

		m.pitch_list=["","ALT","V/S","VNAV PTH","VNAV SPD",
		"VNAV ALT","G/S","FLARE","FLCH SPD","FPA","TO/GA"];

		m.step=0;
		m.tiller_status = 0;
		m.descent_step=0;
		m.heading_change_rate = 0;
		m.optimal_alt = 0;
		m.intervention_alt = 0;
		m.altitude_restriction = -9999.99;
		m.altitude_alert_from_out = 0;
		m.altitude_alert_from_in = 0;
		m.top_of_descent = 0;

		m.AFDS_node = props.globals.getNode("instrumentation/afds",1);
		m.AFDS_inputs = m.AFDS_node.getNode("inputs",1);
		m.AFDS_apmodes = m.AFDS_node.getNode("ap-modes",1);
		m.AFDS_settings = m.AFDS_node.getNode("settings",1);
		m.AP_settings = props.globals.getNode("autopilot/settings",1);

		m.AP = m.AFDS_inputs.initNode("AP",0,"BOOL");
		m.AP_disengaged = m.AFDS_inputs.initNode("AP-disengage",0,"BOOL");
		m.AP_passive = props.globals.initNode("autopilot/locks/passive-mode",1,"BOOL");
		m.AP_pitch_engaged = props.globals.initNode("autopilot/locks/pitch-engaged",1,"BOOL");
		m.AP_roll_engaged = props.globals.initNode("autopilot/locks/roll-engaged",1,"BOOL");

		m.FD = m.AFDS_inputs.initNode("FD",0,"BOOL");
		m.at1 = m.AFDS_inputs.initNode("at-armed[0]",0,"BOOL");
		m.at2 = m.AFDS_inputs.initNode("at-armed[1]",0,"BOOL");
		m.alt_knob = m.AFDS_inputs.initNode("alt-knob",0,"BOOL");
		m.autothrottle_mode = m.AFDS_inputs.initNode("autothrottle-index",0,"INT");
		m.lateral_mode = m.AFDS_inputs.initNode("lateral-index",0,"INT");
		m.vertical_mode = m.AFDS_inputs.initNode("vertical-index",0,"INT");
		m.gs_armed = m.AFDS_inputs.initNode("gs-armed",0,"BOOL");
		m.loc_armed = m.AFDS_inputs.initNode("loc-armed",0,"BOOL");
		m.vor_armed = m.AFDS_inputs.initNode("vor-armed",0,"BOOL");
		m.lnav_armed = m.AFDS_inputs.initNode("lnav-armed",0,"BOOL");
		m.vnav_armed = m.AFDS_inputs.initNode("vnav-armed",0,"BOOL");
		m.rollout_armed = m.AFDS_inputs.initNode("rollout-armed",0,"BOOL");
		m.flare_armed = m.AFDS_inputs.initNode("flare-armed",0,"BOOL");
		m.ias_mach_selected = m.AFDS_inputs.initNode("ias-mach-selected",0,"BOOL");
		m.hdg_trk_selected = m.AFDS_inputs.initNode("hdg-trk-selected",0,"BOOL");
		m.vs_fpa_selected = m.AFDS_inputs.initNode("vs-fpa-selected",0,"BOOL");
		m.bank_switch = m.AFDS_inputs.initNode("bank-limit-switch",0,"INT");
		m.vnav_path_mode = m.AFDS_inputs.initNode("vnav-path-mode",0,"INT");
		m.vnav_mcp_reset = m.AFDS_inputs.initNode("vnav-mcp-reset",0,"BOOL");
		m.vnav_descent = m.AFDS_inputs.initNode("vnav-descent",0,"BOOL");
		m.climb_continuous = m.AFDS_inputs.initNode("climb-continuous",0,"BOOL");
		m.indicated_vs_fpm = m.AFDS_inputs.initNode("indicated-vs-fpm",0,"DOUBLE");
		m.estimated_time_arrival = m.AFDS_inputs.initNode("estimated-time-arrival",0,"INT");
		m.remaining_distance = m.AFDS_inputs.initNode("remaining-distance",0,"DOUBLE");;

		m.ias_setting = m.AP_settings.initNode("target-speed-kt",200);# 100 - 399 #
		m.mach_setting = m.AP_settings.initNode("target-speed-mach",0.40);# 0.40 - 0.95 #
		m.vs_setting = m.AP_settings.initNode("vertical-speed-fpm",0); # -8000 to +6000 #
		m.hdg_setting = m.AP_settings.initNode("heading-bug-deg",360,"INT"); # 1 to 360
		m.hdg_setting_last = m.AP_settings.initNode("heading-bug-last",360,"INT"); # 1 to 360
		m.hdg_setting_active = m.AP_settings.initNode("heading-bug-active",0,"BOOL");
		m.trk_setting = m.AP_settings.initNode("track-bug-deg",360,"INT"); # 1 to 360
		m.fpa_setting = m.AP_settings.initNode("flight-path-angle",0); # -9.9 to 9.9 #
		m.alt_setting = m.AP_settings.initNode("counter-set-altitude-ft",10000,"DOUBLE");
		m.target_alt = m.AP_settings.initNode("actual-target-altitude-ft",10000,"DOUBLE");
		m.target_alt_FL = m.AP_settings.initNode("actual-target-altitude-FL",10,"INT");
		m.target_alt_100 = m.AP_settings.initNode("actual-target-altitude-100",000,"INT");
		m.radio_alt_ind = m.AP_settings.initNode("radio-altimeter-indication",000,"INT");
		m.pfd_mach_ind = m.AP_settings.initNode("pfd-mach-indication",000,"INT");
		m.pfd_mach_target = m.AP_settings.initNode("pfd-mach-target-indication",000,"INT");
		m.auto_brake_setting = m.AP_settings.initNode("autobrake",0.000,"DOUBLE");
		m.flare_constant_setting = m.AP_settings.initNode("flare-constant",0.000,"DOUBLE");
		m.thrust_lmt = m.AP_settings.initNode("thrust-lmt",1,"DOUBLE");
		m.flight_idle = m.AP_settings.initNode("flight-idle",0,"DOUBLE");

		m.vs_display = m.AFDS_settings.initNode("vs-display",0);
		m.fpa_display = m.AFDS_settings.initNode("fpa-display",0);
		m.bank_min = m.AFDS_settings.initNode("bank-min",-25);
		m.bank_max = m.AFDS_settings.initNode("bank-max",25);
		m.pitch_min = m.AFDS_settings.initNode("pitch-min",-10);
		m.pitch_max = m.AFDS_settings.initNode("pitch-max",15);
		m.auto_popup = m.AFDS_settings.initNode("auto-pop-up",0,"BOOL");
		m.heading_magnetic = m.AFDS_settings.getNode("heading-magnetic",1);
		m.manual_intervention = m.AFDS_settings.initNode("manual-intervention",0,"BOOL");

		m.AP_roll_mode = m.AFDS_apmodes.initNode("roll-mode","TO/GA");
		m.AP_roll_arm = m.AFDS_apmodes.initNode("roll-mode-arm"," ");
		m.AP_pitch_mode = m.AFDS_apmodes.initNode("pitch-mode","TO/GA");
		m.AP_pitch_arm = m.AFDS_apmodes.initNode("pitch-mode-arm"," ");
		m.AP_speed_mode = m.AFDS_apmodes.initNode("speed-mode","");
		m.AP_annun = m.AFDS_apmodes.initNode("mode-annunciator"," ");

		m.APl = setlistener(m.AP, func m.setAP(),0,0);
		m.APdisl = setlistener(m.AP_disengaged, func m.setAP(),0,0);
		m.Lbank = setlistener(m.bank_switch, func m.setbank(),0,0);
		m.LTMode = setlistener(m.autothrottle_mode, func m.updateATMode(),0,0);
		m.WpChanged = setlistener(props.globals.getNode("/autopilot/route-manager/wp/id",1), func m.wpChanged(),0,0);
		m.RmDisabled = setlistener(props.globals.getNode("/autopilot/route-manager/active",1), func m.wpChanged(),0,0);
        
        
        m.NDSymbols = props.globals.getNode("/instrumentation/nd/symbols", 1);
		setprop("autopilot/internal/waypoint-bearing-error-deg", 0);
		return m;
	},

####  Inputs   ####
###################
	input : func(mode,btn)
	{
		if(getprop("/systems/electrical/outputs/avionics"))
		{
			var current_alt = getprop("instrumentation/altimeter/indicated-altitude-ft");
			if(mode==0)
			{
				# horizontal AP controls
				if(btn == 1)		# Heading Sel button
				{
					if(getprop("position/gear-agl-ft") < 50)
					{
						btn = me.lateral_mode.getValue();
					}
				}
				elsif(btn == 2)		# Heading Hold button
				{
					# set target to current magnetic heading
					var tgtHdg = int(me.heading_magnetic.getValue() + 0.50);
					me.hdg_setting.setValue(tgtHdg);
					me.trk_setting.setValue(tgtHdg);
					if(getprop("position/gear-agl-ft") < 50)
					{
						btn = me.lateral_mode.getValue();
					}
					else
					{
						btn = 1;    # Heading sel
					}
				}
				elsif(btn==3)		# LNAV button
				{
					if ((!getprop("/autopilot/route-manager/active"))or
						(getprop("/autopilot/route-manager/current-wp")<0)or
						(getprop("/autopilot/route-manager/wp/id")==""))
					{
						# Oops, route manager isn't active. Keep current mode.
						btn = me.lateral_mode.getValue();
						copilot("Captain, LNAV doesn't engage. We forgot to program or activate the route manager!");
					}
					else
					{
						if(me.lateral_mode.getValue() == 3)		# Current mode is LNAV
						{
							# set target to current magnetic heading
							var tgtHdg = int(me.heading_magnetic.getValue() + 0.50);
							me.hdg_setting.setValue(tgtHdg);
							me.trk_setting.setValue(tgtHdg);
							btn = 1;	# Heading sel
						}
						elsif(me.lnav_armed.getValue())
						{	# LNAV armed then disarm
							me.lnav_armed.setValue(0);
							btn = me.lateral_mode.getValue();
						}
						else
						{	# LNAV arm
							me.lnav_armed.setValue(1);
							btn = me.lateral_mode.getValue();
						}
					}
				}
				me.lateral_mode.setValue(btn);
			}
			elsif(mode==1)
			{
				# vertical AP controls
				if (btn==1)
				{
					# hold current altitude
					if(me.AP.getValue() or me.FD.getValue())
					{
						var alt = int((current_alt+50)/100)*100;
						me.target_alt.setValue(alt);
						me.autothrottle_mode.setValue(5);	# A/T SPD
					}
					else
					{
						btn = 0;
					}
				}
				if(btn==2)
				{
					# hold current vertical speed
					var vs = getprop("instrumentation/inst-vertical-speed-indicator/indicated-speed-fpm");
					vs = int(vs/100)*100;
					if (vs<-8000) vs = -8000;
					if (vs>6000) vs = 6000;
					me.vs_setting.setValue(vs);
					if(vs == 0)
					{
						me.target_alt.setValue(current_alt);
					}
					else
					{
						me.target_alt.setValue(me.alt_setting.getValue());
					}
					me.autothrottle_mode.setValue(5);	# A/T SPD
				}
				if(btn==4)
				{
					# Altitude intervention
					if(me.alt_setting.getValue() == me.intervention_alt)
					{
						# clear current restriciton
						var temp_wpt = getprop("/autopilot/route-manager/current-wp") + 1;
						me.altitude_restriction = getprop("/autopilot/route-manager/route/wp["~temp_wpt~"]/altitude-ft");
						if(me.altitude_restriction > 0)
						{
							me.altitude_restriction = int((me.altitude_restriction + 50) / 100 )* 100;
						}
					}
					else
					{
						me.intervention_alt = me.alt_setting.getValue();
					}
					btn = me.vertical_mode.getValue();
				}
				elsif(btn == 255)
				{
					if(me.vs_setting.getValue() == 0)
					{
						me.target_alt.setValue(current_alt);
					}
					else
					{
						me.target_alt.setValue(me.alt_setting.getValue());
					}
					btn = 2;
				}
				if(btn==5)		# VNAV
				{
					if ((!getprop("/autopilot/route-manager/active"))or
						(getprop("/autopilot/route-manager/current-wp")<0)or
						(getprop("/autopilot/route-manager/wp/id")==""))
					{
						# Oops, route manager isn't active. Keep current mode.
						btn = me.vertical_mode.getValue();
						copilot("Captain, VNAV doesn't engage. We forgot to program or activate the route manager!");
					}
					else
					{
						var vnav_mode = me.vertical_mode.getValue();
						if(vnav_mode == 3)			# Current mode is VNAV PTH
						{
						}
						elsif(vnav_mode == 4)		# Current mode is VNAV SPD
						{
						}
						elsif(vnav_mode == 5)		# Current mode is VNAV ALT
						{
						}
						elsif(me.vnav_armed.getValue())
						{	# VNAV armed then disarm
							me.vnav_armed.setValue(0);
							btn = vnav_mode;
						}
						else
						{	# VNAV arm
							me.vnav_armed.setValue(1);
							me.vnav_path_mode.setValue(0);		# VNAV PTH HOLD
							me.vnav_mcp_reset.setValue(0);
							me.vnav_descent.setValue(0);
							btn = vnav_mode;
							me.descent_step = 0;
							me.manual_intervention.setValue(0);
						}
					}
				}
				if(btn==8)		# FLCH SPD
				{
					# change flight level
					if(((current_alt
						- getprop("autopilot/internal/airport-height")) < 400)
						or (me.at1.getValue() == 0) or (me.at2.getValue() == 0))
					{
						btn = 0;
					}
					elsif(current_alt < me.alt_setting.getValue())
					{
						me.autothrottle_mode.setValue(1);	# A/T THR
					}
					else
					{
						me.autothrottle_mode.setValue(4);	# A/T IDLE
					}
					setprop("autopilot/internal/current-pitch-deg", getprop("orientation/pitch-deg"));
					var alt = me.alt_setting.getValue();
					me.target_alt.setValue(alt);
				}
				me.vertical_mode.setValue(btn);
			}
			elsif(mode == 2)
			{
				# throttle AP controls
				if(me.autothrottle_mode.getValue() != 0
					or (me.at1.getValue() == 0) or (me.at2.getValue() == 0))
				{
					btn = 0;
				}
				elsif(btn == 2)		# TOGA
				{
					if((getprop("instrumentation/airspeed-indicator/indicated-speed-kt") > 50)
						or (getprop("/controls/flight/flaps") == 0))
					{
						btn = 0;
					}
					me.auto_popup.setValue(1);
				}
				elsif((current_alt
						- getprop("autopilot/internal/airport-height")) < 400)
				{
					btn=0;
					copilot("Captain, auto-throttle won't engage below 400ft.");
				}
				me.autothrottle_mode.setValue(btn);
			}
			elsif(mode==3)	#FD, LOC or G/S button
			{
				if(btn == 2)	# FD button toggle
				{
					if(me.FD.getValue())
					{
						if(getprop("gear/gear[1]/wow"))
						{
							me.lateral_mode.setValue(9);		# TOGA
							me.vertical_mode.setValue(10);		# TOGA
						}
					}
					else
					{
						if(!me.AP.getValue())
						{
							me.lateral_mode.setValue(0);		# Clear
							me.vertical_mode.setValue(0);		# Clear
							setprop("autopilot/settings/roll-transition", 0);
							setprop("autopilot/settings/pitch-transition", 0);
						}
					}
				}
				elsif(btn == 3)	# AP button toggle
				{
					if(!me.AP.getValue())
					{
						me.rollout_armed.setValue(0);
						me.flare_armed.setValue(0);
						me.loc_armed.setValue(0);			# Disarm
						me.gs_armed.setValue(0);			# Disarm
						if(!me.FD.getValue())
						{
							me.lateral_mode.setValue(0);		# NO MODE
							me.vertical_mode.setValue(0);		# NO MODE
							setprop("autopilot/settings/roll-transition", 0);
							setprop("autopilot/settings/pitch-transition", 0);
						}
						else
						{
							me.lateral_mode.setValue(2);		# HDG HOLD
							me.vertical_mode.setValue(1);		# ALT
						}
					}
					else
					{
						if(!me.FD.getValue()
							and !me.lnav_armed.getValue()
							and (me.lateral_mode.getValue() != 3))
						{
							var current_bank = getprop("orientation/roll-deg");
							if(abs(current_bank) > 5)
							{
								setprop("autopilot/internal/target-roll-deg", current_bank);
								me.lateral_mode.setValue(8);		# ATT
							}
							else
							{
								# set target to current magnetic heading
								var tgtHdg = int(me.heading_magnetic.getValue() + 0.50);
								me.hdg_setting.setValue(tgtHdg);
								me.trk_setting.setValue(tgtHdg);
								me.lateral_mode.setValue(2);		# HDG HOLD
							}
						}
						if(!me.vnav_armed.getValue()
							and (me.vertical_mode.getValue() == 0))
						{
							# hold current vertical speed
							var vs = getprop("instrumentation/inst-vertical-speed-indicator/indicated-speed-fpm");
							vs = int(vs/100)*100;
							if (vs<-8000) vs = -8000;
							if (vs>6000) vs = 6000;
							me.vs_setting.setValue(vs);
							if(vs == 0)
							{
								me.target_alt.setValue(current_alt);
							}
							else
							{
								me.target_alt.setValue(me.alt_setting.getValue());
							}
							me.vertical_mode.setValue(2);		# V/S
						}
					}
				}
				else
				{
					var llocmode = me.lateral_mode.getValue();
					if(btn==0)
					{
						if(llocmode == 4)		# Alrady in LOC mode
						{
							# set target to current magnetic heading
							var tgtHdg = int(me.heading_magnetic.getValue() + 0.50);
							me.hdg_setting.setValue(tgtHdg);
							me.trk_setting.setValue(tgtHdg);
							me.lateral_mode.setValue(2);		# Keep current headding
							me.loc_armed.setValue(0);			# Disarm
						}
						elsif(me.loc_armed.getValue())			# LOC armed but not captured yet
						{
							me.loc_armed.setValue(0);			# Disarm
						}
						else
						{
							me.loc_armed.setValue(1);			# LOC arm
							me.tiller_status = getprop("/controls/gear/tiller-enabled");
							setprop("autopilot/internal/presision-loc", 0);
     						setprop("instrumentation/nav/heading-needle-deflection-ptr", getprop("instrumentation/nav/heading-needle-deflection-norm"));
						}
					}
					elsif (btn==1)	#APP button
					{
						var lgsmode = me.vertical_mode.getValue();
						if(lgsmode == 6)	# Already in G/S mode
						{
							me.vertical_mode.setValue(1);	# Keep current altitude
							me.gs_armed.setValue(0);		# Disarm
						}
						elsif(me.gs_armed.getValue())		# G/S armed but not captured yet
						{
							me.gs_armed.setValue(0);		# Disarm
							if(llocmode == 4)		# Alrady in LOC mode
							{
								# set target to current magnetic heading
								var tgtHdg = int(me.heading_magnetic.getValue() + 0.50);
								me.hdg_setting.setValue(tgtHdg);
								me.trk_setting.setValue(tgtHdg);
								me.lateral_mode.setValue(2);		# Keep current headding
								me.loc_armed.setValue(0);			# Disarm
							}
							else
							{
								me.loc_armed.setValue(0);			# Disarm
							}
						}
						else
						{
							me.gs_armed.setValue(1);		# G/S arm
							if(me.loc_armed.getValue() == 0)
							{
								me.loc_armed.setValue(1);		# LOC arm
								me.tiller_status = getprop("/controls/gear/tiller-enabled");
							}
						}
					}
				}
			}
		}
	},
###################
	setAP : func{
		var output = 1-me.AP.getValue();
		var disabled = me.AP_disengaged.getValue();
		if((output==0)and(getprop("position/gear-agl-ft")<200))
		{
			disabled = 1;
			copilot("Captain, autopilot won't engage below 200ft.");
		}
		if((disabled)and(output==0)){output = 1;me.AP.setValue(0);}
		if (output==1)
		{
			var msg="";
			var msg2="";
			var msg3="";
			if (abs(getprop("controls/flight/rudder-trim"))   > 0.04) msg  = "rudder";
			if (abs(getprop("controls/flight/elevator-trim")) > 0.04) msg2 = "pitch";
			if (abs(getprop("controls/flight/aileron-trim"))  > 0.04) msg3 = "aileron";
			if (msg ~ msg2 ~ msg3 != "")
			{
				if ((msg != "")and(msg2!=""))
					msg = msg ~ ", " ~ msg2;
				else
					msg = msg ~ msg2;
				if ((msg != "")and(msg3!=""))
					msg = msg ~ " and " ~ msg3;
				else
					msg = msg ~ msg3;
				copilot("Captain, autopilot disengaged. Careful, check " ~ msg ~ " trim!");
			}
			me.rollout_armed.setValue(0);
			me.flare_armed.setValue(0);
			me.loc_armed.setValue(0);			# Disarm
			me.gs_armed.setValue(0);			# Disarm
			if(!me.FD.getValue())
			{
				me.lateral_mode.setValue(0);		# NO MODE
				me.vertical_mode.setValue(0);		# NO MODE
				setprop("autopilot/settings/roll-transition", 0);
				setprop("autopilot/settings/pitch-transition", 0);
			}
			else
			{
				me.lateral_mode.setValue(2);		# HDG HOLD
				me.vertical_mode.setValue(1);		# ALT
			}
		}
		else
		{
			if(!me.FD.getValue()
				and !me.lnav_armed.getValue()
				and (me.lateral_mode.getValue() != 3))
			{
				var current_bank = getprop("orientation/roll-deg");
				if(abs(current_bank) > 5)
				{
					setprop("autopilot/internal/target-roll-deg", current_bank);
					me.lateral_mode.setValue(8);		# ATT
				}
				else
				{
					# set target to current magnetic heading
					var tgtHdg = int(me.heading_magnetic.getValue() + 0.50);
					me.hdg_setting.setValue(tgtHdg);
					me.trk_setting.setValue(tgtHdg);
					me.lateral_mode.setValue(2);		# HDG HOLD
				}
			}
			if(!me.vnav_armed.getValue()
				and (me.vertical_mode.getValue() == 0))
			{
				# hold current vertical speed
				var vs = getprop("instrumentation/inst-vertical-speed-indicator/indicated-speed-fpm");
				vs = int(vs/100)*100;
				if (vs<-8000) vs = -8000;
				if (vs>6000) vs = 6000;
				me.vs_setting.setValue(vs);
				if(vs == 0)
				{
					me.target_alt.setValue(getprop("instrumentation/altimeter/indicated-altitude-ft"));
				}
				else
				{
					me.target_alt.setValue(me.alt_setting.getValue());
				}
				me.vertical_mode.setValue(2);		# V/S
			}
		}
	},
###################
	setbank : func{
		var banklimit = me.bank_switch.getValue();
		var lmt = 25;
		if(banklimit>0) {lmt = banklimit * 5};
		me.bank_max.setValue(lmt);
		lmt = -1 * lmt;
		me.bank_min.setValue(lmt);
	},
###################
	updateATMode : func()
	{
		var idx = me.autothrottle_mode.getValue();
		if((me.AP_speed_mode.getValue() != me.spd_list[idx])
				and (idx > 0))
		{
			setprop("autopilot/settings/speed-transition", 1);
			settimer(func
			{
				setprop("autopilot/settings/speed-transition", 0);
			}, 10);
		}
		me.AP_speed_mode.setValue(me.spd_list[idx]);
	},
#################
	wpChanged : func{
		if (((getprop("/autopilot/route-manager/wp/id")=="")or
			(!getprop("/autopilot/route-manager/active")))and
			(me.lateral_mode.getValue() == 3)and
			me.AP.getValue())
		{
			# LNAV active, but route manager is disabled now => switch to HDG HOLD (current heading)
			me.input(0,2);
		}
	},
#################
	ap_update : func{
		var current_alt = getprop("instrumentation/altimeter/indicated-altitude-ft");
		var VS = getprop("velocities/vertical-speed-fps");
		var TAS = getprop("velocities/uBody-fps");
		me.indicated_vs_fpm.setValue(int((abs(VS) * 60 + 50) / 100) * 100);
		if(getprop("instrumentation/airspeed-indicator/indicated-speed-kt") < 30)
		{
			setprop("instrumentation/airspeed-indicator/indicated-speed-kt", 30);
		}
		# This value is used for displaying negative altitude 
		if(current_alt < 0)
		{
			setprop("instrumentation/altimeter/indicator-altitude-ft", abs(current_alt) + 90000);
		}
		else
		{
			setprop("instrumentation/altimeter/indicator-altitude-ft", current_alt);
		}
		if(TAS < 10) TAS = 10;
		if(VS < -200) VS=-200;
		if (abs(VS/TAS)<=1)
		{
			var FPangle = math.asin(VS/TAS);
			FPangle *=90;
			setprop("autopilot/internal/fpa",FPangle);
		}
		var msg = " ";
		if(me.FD.getValue())
		{
			msg="FLT DIR";
		}
		if(me.AP.getValue())
		{
			msg="A/P";
			if(me.rollout_armed.getValue())
			{
				msg="LAND 3";
			}
		}
		if(msg == " ")
		{
			setprop("autopilot/settings/autopilot-transition", 0);
		}
		elsif(me.AP_annun.getValue() != msg)
		{
			setprop("autopilot/settings/autopilot-transition", 1);
			settimer(func
			{
				setprop("autopilot/settings/autopilot-transition", 0);
			}, 10);
		}
		me.AP_annun.setValue(msg);
		var tmp = abs(me.vs_setting.getValue());
		me.vs_display.setValue(tmp);
		tmp = abs(me.fpa_setting.getValue());
		me.fpa_display.setValue(tmp);
		msg = "";
		var hdgoffset = 0;
		if(me.hdg_trk_selected.getValue())
		{
			hdgoffset = me.trk_setting.getValue()-getprop("orientation/heading-magnetic-deg");
		}
		else
		{
			hdgoffset = me.hdg_setting.getValue()-getprop("orientation/heading-magnetic-deg");
		}
		if(hdgoffset < -180) hdgoffset +=360;
		if(hdgoffset > 180) hdgoffset +=-360;
		setprop("autopilot/internal/fdm-heading-bug-error-deg",hdgoffset);

		if(me.step==0){ ### glideslope armed ?###
			var gear_agl_ft = getprop("position/gear-agl-ft");
			if(gear_agl_ft > 500)
			{
				gear_agl_ft = int(gear_agl_ft / 20) * 20; 
			}
			elsif(gear_agl_ft > 100)
			{
				gear_agl_ft = int(gear_agl_ft / 10) * 10; 
			}
			me.radio_alt_ind.setValue(gear_agl_ft); 
			msg="";
			if(me.gs_armed.getValue())
			{
				msg="G/S";
				var gsdefl = getprop("instrumentation/nav/gs-needle-deflection");
				var gsrange = getprop("instrumentation/nav/gs-in-range");
				if ((gsdefl< 0.5 and gsdefl>-0.5)and
					gsrange)
				{
					me.vertical_mode.setValue(6);
					me.gs_armed.setValue(0);
				}
			}
			elsif(me.flare_armed.getValue())
			{
				msg="FLARE";
			}
			elsif(me.vnav_armed.getValue())
			{
				msg = "VNAV";
			}
			me.AP_pitch_arm.setValue(msg);

		}elsif(me.step==1){ ### localizer armed ? ###
			msg = "";
			if(me.loc_armed.getValue())
			{
				msg = "LOC";
				if (getprop("instrumentation/nav/in-range"))
				{

					if(!getprop("instrumentation/nav/nav-loc"))
					{
						var vheading = getprop("instrumentation/nav/radials/selected-deg");
						var vvor = getprop("instrumentation/nav/heading-deg");
						var vdist = getprop("instrumentation/nav/nav-distance");
						var vorient = getprop("environment/magnetic-variation-deg");
						var vmag = getprop("orientation/heading-magnetic-deg");
						var vspeed = getprop("/instrumentation/airspeed-indicator/indicated-mach");
						var deg_to_rad = math.pi / 180;
						var vdiff = abs(vheading - vvor + vorient);
						vdiff = abs(vdist * math.sin(vdiff * deg_to_rad));
						var vlim = vspeed / 0.3 * 1300 * abs(vheading - vmag) / 45 ;
						if(vdiff < vlim)
						{
							me.lateral_mode.setValue(4);
							me.loc_armed.setValue(0);
						}
					}
					else
					{
						var hddefl = getprop("instrumentation/nav/heading-needle-deflection");
						if(abs(hddefl) < 9.9)
						{
							me.lateral_mode.setValue(4);
							me.loc_armed.setValue(0);
							var vradials = getprop("instrumentation/nav[0]/radials/target-radial-deg")
								- getprop("environment/magnetic-variation-deg") + 0.5;
							if(vradials < 0.5) vradials += 360;
							elsif(vradials >= 360.5) vradials -= 360;
							me.hdg_setting.setValue(vradials);
						}
						else
						{
							setprop("autopilot/internal/presision-loc", 0);
     						setprop("instrumentation/nav/heading-needle-deflection-ptr", getprop("instrumentation/nav/heading-needle-deflection-norm"));
						}
					}
				}
				else
				{
					setprop("autopilot/internal/presision-loc", 0);
				}
			}
			elsif(me.lnav_armed.getValue())
			{
				if(getprop("position/gear-agl-ft") > 50)
				{
					msg = "";
					me.lnav_armed.setValue(0);		# Clear
					me.lateral_mode.setValue(3);	# LNAV
				}
				else
				{
					msg = "LNAV";
				}
			}
			elsif(me.rollout_armed.getValue())
			{
				msg = "ROLLOUT";
			}
			me.AP_roll_arm.setValue(msg);

		}elsif(me.step == 2){ ### check lateral modes  ###
			var vheading = getprop("orientation/heading-magnetic-deg");
			if(vheading < 0.5)
			{
				vheading += 360;
			}
			me.heading_magnetic.setValue(vheading);
			var vsethdg = me.hdg_setting.getValue();
			if(me.hdg_setting_last.getValue() != vsethdg)
			{
				me.hdg_setting_last.setValue(vsethdg);
				me.hdg_setting_active.setValue(1);
			}
			else
			{
				if(me.hdg_setting_active.getValue() == 1)
				{
					settimer(func
						{
							if(me.hdg_setting_last.getValue() == vsethdg)
							{
								me.hdg_setting_active.setValue(0);
							}

						}, 1);
				}
			}
			var idx = me.lateral_mode.getValue();
			if ((idx == 1) or (idx == 2))
			{
				if(getprop("position/gear-agl-ft") > 50)
				{
					# switch between HDG SEL to HDG HOLD
					if (abs(getprop("orientation/heading-magnetic-deg")-me.hdg_setting.getValue())<2)
						idx = 2; # HDG HOLD
					else
						idx = 1; # HDG SEL
				}
			}
			elsif(idx == 4)		# LOC
			{
				if((me.rollout_armed.getValue())
					and (getprop("position/gear-agl-ft") < 5))
				{
					me.rollout_armed.setValue(0);
					idx = 5;	# ROLLOUT
					setprop("/controls/gear/tiller-enabled", 1);
				}
				var deflection = getprop("instrumentation/nav/heading-needle-deflection-norm");
				if(abs(deflection) < 0.5233)
				{
					setprop("autopilot/internal/presision-loc", 1);
     				setprop("instrumentation/nav/heading-needle-deflection-ptr", (deflection * 1.728));
				}
				else
				{
					setprop("autopilot/internal/presision-loc", 0);
     				setprop("instrumentation/nav/heading-needle-deflection-ptr", deflection);
				}
			}
			elsif(idx == 5)									# ROLLOUT
			{
				if(getprop("velocities/groundspeed-kt") < 50)
				{
					setprop("/controls/gear/tiller-enabled", me.tiller_status);
					me.AP.setValue(0);						# Autopilot off
					setprop("controls/flight/rudder", 0);	# Rudder set neutral
					if(!me.FD.getValue())
					{
						idx = 0;	# NO MODE
					}
					else
					{
						idx = 1; 	# HDG SEL
					}
				}
			}
			me.lateral_mode.setValue(idx);
			if((me.AP_roll_mode.getValue() != me.roll_list[idx])
					and (idx > 0))
			{
				setprop("autopilot/settings/roll-transition", 1);
				settimer(func
				{
					setprop("autopilot/settings/roll-transition", 0);
				}, 10);
			}
			me.AP_roll_mode.setValue(me.roll_list[idx]);
			me.AP_roll_engaged.setBoolValue(idx > 0);

		}elsif(me.step==3){ ### check vertical modes  ###
			me.target_alt_FL.setValue(me.target_alt.getValue() / 1000);
			me.target_alt_100.setValue(me.target_alt.getValue() - (me.target_alt_FL.getValue() * 1000));
			if(getprop("instrumentation/airspeed-indicator/indicated-speed-kt") < 100)
			{
				setprop("autopilot/internal/airport-height", current_alt);
			}
			### altitude alert ###
			var alt_deviation = abs(me.target_alt.getValue() - current_alt);
			if((alt_deviation > 900)
					or (me.vertical_mode.getValue() == 6)			# G/S mode
					or (getprop("gear/gear/position-norm") == 1)) 	# Gear down and locked
			{
				me.altitude_alert_from_out = 0;
				me.altitude_alert_from_in = 0;
				setprop("autopilot/internal/alt-alert", 0);
			}
			elsif(alt_deviation > 200)
			{
				if((me.altitude_alert_from_out == 0)
						and (me.altitude_alert_from_in == 0))
				{
					me.altitude_alert_from_out = 1;
					setprop("autopilot/internal/alt-alert", 1);
				}
				elsif((me.altitude_alert_from_out == 1)
						and (me.altitude_alert_from_in == 1))
				{
					me.altitude_alert_from_out = 0;
					setprop("autopilot/internal/alt-alert", 2);
				}
			}
			else
			{
				me.altitude_alert_from_out = 1;
				me.altitude_alert_from_in = 1;
				setprop("autopilot/internal/alt-alert", 0);
			}

			var idx = me.vertical_mode.getValue();
			var test_fpa = me.vs_fpa_selected.getValue();
			var offset = (abs(getprop("instrumentation/inst-vertical-speed-indicator/indicated-speed-fpm")) / 8);
			if(offset < 20)
			{
				offset = 20;
			}
			me.optimal_alt = ((getprop("consumables/fuel/total-fuel-lbs") + getprop("/sim/weight[0]/weight-lb") + getprop("/sim/weight[1]/weight-lb"))
							/ getprop("sim/max-payload"));
			if(me.optimal_alt > 0.95) me.optimal_alt = 29000;
			elsif(me.optimal_alt > 0.89) me.optimal_alt = 30000;
			elsif(me.optimal_alt > 0.83) me.optimal_alt = 31000;
			elsif(me.optimal_alt > 0.74) me.optimal_alt = 32000;
			elsif(me.optimal_alt > 0.65) me.optimal_alt = 33000;
			elsif(me.optimal_alt > 0.59) me.optimal_alt = 34000;
			elsif(me.optimal_alt > 0.53) me.optimal_alt = 35000;
			elsif(me.optimal_alt > 0.47) me.optimal_alt = 36000;
			elsif(me.optimal_alt > 0.41) me.optimal_alt = 37000;
			elsif(me.optimal_alt > 0.35) me.optimal_alt = 38000;
			elsif(me.optimal_alt > 0.23) me.optimal_alt = 40000;
			elsif(me.optimal_alt > 0.16) me.optimal_alt = 41000;
			else me.optimal_alt = 43000;
			if(idx==2 and test_fpa)idx=9;
			if(idx==9 and !test_fpa)idx=2;
			if((idx==8)or(idx==1)or(idx==2)or(idx==9))
			{
				# flight level change mode
				if (abs(current_alt - me.alt_setting.getValue()) < offset)
				{
					# within MCP altitude: switch to ALT HOLD mode
					idx = 1;	# ALT
					if(me.autothrottle_mode.getValue() != 0)
					{
						me.autothrottle_mode.setValue(5);	# A/T SPD
					}
					me.vs_setting.setValue(0);
				}
				if((me.mach_setting.getValue() >= 0.840)
					and (me.ias_mach_selected.getValue() == 0)
					and (current_alt < me.target_alt.getValue()))
				{
					me.ias_mach_selected.setValue(1);
					me.mach_setting.setValue(0.840);
				}
				elsif((me.ias_setting.getValue() >= 320)
					and (me.ias_mach_selected.getValue() == 1)
					and (current_alt > me.target_alt.getValue()))
				{
					me.ias_mach_selected.setValue(0);
					me.ias_setting.setValue(320);
				}
				# This is not official setting. Until VNAV DECENT is implemented
				elsif(current_alt > me.target_alt.getValue())
				{
					if((current_alt < 12000)
						and (me.ias_setting.getValue() > 250))
					{
						me.ias_setting.setValue(250);
					}
				}
			}
			elsif(idx == 3)		# VNAV PTH
			{
				if(me.vnav_descent.getValue())
				{
					if(me.descent_step == 0)
					{
						if(me.ias_mach_selected.getValue() == 1)
						{
							me.mach_setting.setValue(0.780);
						}
						else
						{
							me.ias_setting.setValue(280);
						}
						me.descent_step += 1;
					}
					elsif(me.descent_step == 1)
					{
						if(me.ias_mach_selected.getValue() == 1)
						{
							if(getprop("/instrumentation/airspeed-indicator/indicated-mach") < 0.785)
							{
								me.vnav_path_mode.setValue(1);		# VNAV PTH DESCEND VS
								me.target_alt.setValue(me.intervention_alt);
								me.vs_setting.setValue(-2000);
								me.descent_step += 1;
							}
						}
						else
						{
							if(getprop("/instrumentation/airspeed-indicator/indicated-speed-kt") < 285)
							{
								me.vnav_path_mode.setValue(1);		# VNAV PTH DESCEND VS
								me.target_alt.setValue(me.intervention_alt);
								me.vs_setting.setValue(-2000);
								me.descent_step += 1;
							}
						}
					}
					elsif(me.descent_step == 2)
					{
						if(me.ias_mach_selected.getValue() == 1)
						{
							if(getprop("instrumentation/airspeed-indicator/indicated-speed-kt") >= 280)
							{
								me.ias_mach_selected.setValue(0);
								me.ias_setting.setValue(280);
								me.descent_step += 1;
							}
						}
						else
						{
							me.descent_step += 1;
						}
					}
					elsif(me.descent_step == 3)
					{
						if(current_alt < 29000)
						{
							me.vnav_path_mode.setValue(2);			# VNAV PTH DESCEND FLCH
							me.descent_step += 1;
						}
					}
					elsif(me.descent_step == 4)
					{
						if((current_alt < 12000)
							and (me.ias_setting.getValue() > 250))
						{
							me.ias_setting.setValue(250);
							me.descent_step += 1;
						}
					}
					# flight level change mode
					if (abs(current_alt - me.intervention_alt) < offset)
					{
						if(me.autothrottle_mode.getValue() != 0)
						{
							me.autothrottle_mode.setValue(5);	# A/T SPD
						}
						me.vs_setting.setValue(0);
						me.vnav_path_mode.setValue(0);
						if(current_alt > (getprop("/autopilot/route-manager/destination/field-elevation-ft") + 4750))
						{
							idx = 5;	# VNAV ALT
						}
					}
				}
				else
				{
					if(me.intervention_alt != getprop("autopilot/route-manager/cruise/altitude-ft"))
					{
						setprop("autopilot/route-manager/cruise/altitude-ft", me.intervention_alt);
						if(me.intervention_alt <= me.optimal_alt)
						{
							me.target_alt.setValue(me.intervention_alt);
						}
						else
						{
							me.target_alt.setValue(me.optimal_alt);
						}
						idx = 4;	# VNAV SPD
					}
					if((me.mach_setting.getValue() >= 0.840)
						and (me.ias_mach_selected.getValue() == 0))
					{
						me.ias_mach_selected.setValue(1);
						me.mach_setting.setValue(0.840);
					}
					elsif((me.ias_setting.getValue() >= 320)
						and (me.ias_mach_selected.getValue() == 1))
					{
						me.ias_mach_selected.setValue(0);
						me.ias_setting.setValue(320);
					}
					elsif(me.ias_mach_selected.getValue() == 0)
					{
						if(current_alt < 10000)
						{
							me.ias_setting.setValue(250);
						}
						else
						{
							me.ias_setting.setValue(320);
						}
					}
				}
			}
			elsif(idx == 4)		# VNAV SPD
			{
				if(getprop("/controls/flight/flaps") > 0)		# flaps down
				{
					me.ias_setting.setValue(getprop("instrumentation/weu/state/target-speed"));
				}
				elsif(current_alt < 10000)
				{
					me.ias_setting.setValue(250);
				}
				else
				{
					if((me.mach_setting.getValue() >= 0.840)
						and (me.ias_mach_selected.getValue() == 0)
						and (current_alt < me.target_alt.getValue()))
					{
						me.ias_mach_selected.setValue(1);
						me.mach_setting.setValue(0.840);
					}
					elsif((me.ias_setting.getValue() >= 320)
						and (me.ias_mach_selected.getValue() == 1)
						and (current_alt > me.target_alt.getValue()))
					{
						me.ias_mach_selected.setValue(0);
						me.ias_setting.setValue(320);
					}
					elsif(me.ias_mach_selected.getValue() == 0)
					{
						if(current_alt < 10000)
						{
							me.ias_setting.setValue(250);
						}
						else
						{
							me.ias_setting.setValue(320);
						}
					}
				}
				if(me.altitude_restriction > 0)
				{
					me.target_alt.setValue(me.altitude_restriction);
				}
				elsif(me.intervention_alt >= me.optimal_alt)
				{
					if(getprop("autopilot/route-manager/cruise/altitude-ft") >= me.optimal_alt)
					{
						me.target_alt.setValue(me.optimal_alt);
					}
					else
					{
						me.target_alt.setValue(me.intervention_alt);
					}
				}
				else
				{
					me.target_alt.setValue(me.intervention_alt);
				}
				var offset = (abs(getprop("instrumentation/inst-vertical-speed-indicator/indicated-speed-fpm")) / 8);
				if(offset < 20)
				{
					offset = 20;
				}
				if (abs(current_alt
					- me.target_alt.getValue()) < offset)
				{
					if(abs(current_alt - getprop("autopilot/route-manager/cruise/altitude-ft")) < offset)
					{			
						# within target altitude: switch to VANV PTH mode
						idx=3;
					}
					else
					{
						idx=5;				# VNAV ALT
					}
					if(me.autothrottle_mode.getValue() != 0)
					{
						me.autothrottle_mode.setValue(5);	# A/T SPD
					}
					me.vs_setting.setValue(0);
				}
			}
			elsif(idx == 5)		# VNAV ALT
			{
				if(me.vnav_descent.getValue())
				{
					if(me.intervention_alt < (current_alt - 500))
					{
						idx = 3;		# VNAV PTH
						me.descent_step = 0;
					}
				}
				elsif(me.altitude_restriction > 0)
				{
					if(current_alt < (me.altitude_restriction - 500))
					{
						me.target_alt.setValue(me.altitude_restriction);
						idx = 4;		# VNAV SPD
					}
				}
				elsif((current_alt <  (me.optimal_alt - 500))
					and (current_alt < (me.intervention_alt - 500)))
				{
					if(me.optimal_alt < me.intervention_alt)
					{
						me.target_alt.setValue(me.optimal_alt);
					}
					else
					{
						me.target_alt.setValue(me.intervention_alt);
					}
					idx = 4;		# VNAV SPD
				}
			}
			elsif(idx == 6)				# G/S
			{
				var f_angle = getprop("autopilot/constant/flare-base") * 135 / getprop("instrumentation/airspeed-indicator/indicated-speed-kt");
				me.flare_constant_setting.setValue(f_angle);
				if((getprop("position/gear-agl-ft") < 50)
					and (me.flare_armed.getValue()))
				{
					me.flare_armed.setValue(0);
					idx = 7;			# FLARE
				}
				elsif(me.AP.getValue() and (getprop("position/gear-agl-ft") < 1500))
				{
					me.rollout_armed.setValue(1);		# ROLLOUT
					me.flare_armed.setValue(1);			# FLARE
					setprop("autopilot/settings/flare-speed-fps", 0);
				}
			}
			elsif(idx == 7)								# FLARE
			{
				var f_angle = 0.00;
				me.flare_constant_setting.setValue(f_angle);
				if(me.autothrottle_mode.getValue())
				{
					if(getprop("position/gear-agl-ft") < 25)
					{
						me.autothrottle_mode.setValue(4);	# A/T IDLE
					}
				}
				if(getprop("velocities/groundspeed-kt") < 30)
				{
					if(!me.FD.getValue())
					{
						idx = 0;	# NO MODE
					}
					else
					{
						idx = 1; 	# ALT
					}
				}
			}
			if((current_alt
				- getprop("autopilot/internal/airport-height")) > 400) # Take off mode and above baro 400 ft
			{
				if(me.vnav_armed.getValue())
				{
					if(me.target_alt.getValue() == int(current_alt))
					{
						if(getprop("autopilot/route-manager/cruise/altitude-ft") == int(current_alt))
						{
							idx = 3;		# VNAV PTH
						}
						else
						{
							idx = 5;		# VNAV ALT
						}					
					}
					else
					{
						idx = 4;		# VNAV SPD
					}
					me.intervention_alt = me.alt_setting.getValue();
					if(me.intervention_alt > getprop("autopilot/route-manager/cruise/altitude-ft"))
					{
						me.target_alt.setValue(getprop("autopilot/route-manager/cruise/altitude-ft"));
					}
					else
					{
						me.target_alt.setValue(me.intervention_alt);
					}
					me.vnav_armed.setValue(0);
				}
			}
			me.vertical_mode.setValue(idx);
			if((me.AP_pitch_mode.getValue() != me.pitch_list[idx])
					and (idx > 0))
			{
				setprop("autopilot/settings/pitch-transition", 1);
				settimer(func
				{
					setprop("autopilot/settings/pitch-transition", 0);
				}, 10);
			}
			me.AP_pitch_mode.setValue(me.pitch_list[idx]);
			me.AP_pitch_engaged.setBoolValue(idx>0);

		}
		elsif(me.step == 4) 			### Auto Throttle mode control  ###
		{
			# Thrust reference rate calculation. This should be provided by FMC
			var payload = getprop("consumables/fuel/total-fuel-lbs") + getprop("/sim/weight[0]/weight-lb") + getprop("/sim/weight[1]/weight-lb");
			var derate = 0.3 - payload * 0.00000083;
			if(me.ias_setting.getValue() < 251)
			{
				var vflight_idle = (getprop("autopilot/constant/descent-profile-low-base")
					+ (getprop("autopilot/constant/descent-profile-low-rate") * payload / 1000));
			}
			else
			{
				var vflight_idle = (getprop("autopilot/constant/descent-profile-high-base")
					+ (getprop("autopilot/constant/descent-profile-high-rate") * payload / 1000));
			}
			if(vflight_idle < 0.00) vflight_idle = 0.00;
			me.flight_idle.setValue(vflight_idle);
			# Thurst limit varis on altitude
			var thrust_lmt = 0.96;
			if(current_alt < 25000)
			{
				thrust_lmt = derate / 25000 * abs(current_alt) + (0.95 - derate);
				if((current_alt < 10000)
						and (getprop("gear/gear/position-norm") == 0))
				{
					thrust_lmt *= getprop("autopilot/constant/derate-lowalt");
				}
			}
			me.thrust_lmt.setValue(thrust_lmt);
			# IAS and MACH number update in back ground
			var temp = 0;
			if(me.ias_mach_selected.getValue() == 1)
			{
				temp = int(getprop("instrumentation/airspeed-indicator/indicated-speed-kt") + 0.5);
				me.ias_setting.setValue(temp);
			}
			else
			{
				temp = (int(getprop("instrumentation/airspeed-indicator/indicated-mach")  * 1000 + 0.5) / 1000);
				me.mach_setting.setValue(temp);
			}
			# Auto throttle arm switch is offed
			if((me.at1.getValue() == 0) or (me.at2.getValue() == 0))
			{
				me.autothrottle_mode.setValue(0);
				setprop("autopilot/settings/speed-transition", 0);
			}
			# auto-throttle disengaged when reverser is enabled
			elsif (getprop("controls/engines/engine/reverser"))
			{
				me.autothrottle_mode.setValue(0);
				setprop("autopilot/settings/speed-transition", 0);
			}
			elsif(me.autothrottle_mode.getValue() == 2)		# THR REF
			{
				if((getprop("instrumentation/airspeed-indicator/indicated-speed-kt") > 80)
					and ((current_alt - getprop("autopilot/internal/airport-height")) < 400))
				{
					me.autothrottle_mode.setValue(3);			# HOLD
				}
				elsif((me.vertical_mode.getValue() != 3)		# not VNAV PTH
					and (me.vertical_mode.getValue() != 5))		# not VNAV ALT
				{
					if((getprop("/controls/flight/flaps") == 0)		# FLAPs up
						and (me.vertical_mode.getValue() != 4))		# not VNAV SPD
					{
						me.autothrottle_mode.setValue(5);		# SPD
					}
					else
					{
						setprop("/controls/engines/engine[0]/throttle", thrust_lmt);
						setprop("/controls/engines/engine[1]/throttle", thrust_lmt);
					}
				}
			}
			elsif((me.autothrottle_mode.getValue() == 4)		# Auto throttle mode IDLE 
				and ((me.vertical_mode.getValue() == 8)			# FLCH SPD mode
					or (me.vertical_mode.getValue() == 3))		# VNAV PTH mode
				and (int(me.flight_idle.getValue() * 1000) == int(getprop("/controls/engines/engine[0]/throttle") * 1000))		# #1Thrust is actual flight idle
				and (int(me.flight_idle.getValue() * 1000) == int(getprop("/controls/engines/engine[0]/throttle") * 1000)))		# #2Thrust is actual flight idle
			{
				me.autothrottle_mode.setValue(3);				# HOLD
			}
			# Take off mode and above baro 400 ft
			elsif((current_alt - getprop("autopilot/internal/airport-height")) > 400)
			{
				if(me.autothrottle_mode.getValue() == 1)		# THR
				{
					setprop("/controls/engines/engine[0]/throttle", thrust_lmt);
					setprop("/controls/engines/engine[1]/throttle", thrust_lmt);
				}
				elsif((me.vertical_mode.getValue() == 10)		# TO/GA
					or ((me.autothrottle_mode.getValue() == 3)	# HOLD
					and (me.vertical_mode.getValue() != 8)		 # not FLCH
						and (me.vertical_mode.getValue() != 3) 	 # not VNAV PTH
						and (me.vertical_mode.getValue() != 5))) # not VNAV ALT
				{
					if(getprop("/controls/flight/flaps") == 0)
					{
						me.autothrottle_mode.setValue(5);		# SPD
					}
					else
					{
						me.autothrottle_mode.setValue(2);		# THR REF
					}
				}
				elsif(me.vertical_mode.getValue() == 4)			# VNAV SPD
				{
					me.autothrottle_mode.setValue(2);			# THR REF
				}
				elsif(me.vertical_mode.getValue() == 3)			# VNAV PTH
				{
					if(me.vnav_path_mode.getValue() == 2)
					{
						if(me.autothrottle_mode.getValue() != 3)
						{
							me.autothrottle_mode.setValue(4);	# IDLE
						}
					}
					else
					{
						me.autothrottle_mode.setValue(5);		# SPD
					}
				}
				elsif(me.vertical_mode.getValue() == 5)			# VNAV ALT
				{
					me.autothrottle_mode.setValue(5);		# SPD
				}
			}
			elsif((getprop("position/gear-agl-ft") > 100)		# Approach mode and above 100 ft
					and (me.vertical_mode.getValue() == 6)) 
			{
				me.autothrottle_mode.setValue(5);				# SPD
			}
			idx = me.autothrottle_mode.getValue();
			if((me.AP_speed_mode.getValue() != me.spd_list[idx])
					and (idx > 0))
			{
				setprop("autopilot/settings/speed-transition", 1);
				settimer(func
				{
					setprop("autopilot/settings/speed-transition", 0);
				}, 10);
			}
			me.AP_speed_mode.setValue(me.spd_list[idx]);
		}
		elsif(me.step==5)
		{
			if (getprop("/autopilot/route-manager/active")){
				var max_wpt = getprop("/autopilot/route-manager/route/num");
				var atm_wpt = getprop("/autopilot/route-manager/current-wp");
				var destination_elevation = getprop("/autopilot/route-manager/destination/field-elevation-ft");
				var total_distance = getprop("/autopilot/route-manager/total-distance");
				if(me.lateral_mode.getValue() == 3)		# Current mode is LNAV
				{
					if(atm_wpt < (max_wpt - 1))
					{
						me.remaining_distance.setValue(getprop("/autopilot/route-manager/wp/remaining-distance-nm")
							+ getprop("autopilot/route-manager/wp/dist"));
						var next_course = getprop("/autopilot/route-manager/wp[1]/bearing-deg");
					}
					else
					{
						me.remaining_distance.setValue(getprop("autopilot/route-manager/wp/dist"));
					}
					if(me.vnav_descent.getValue() == 0)	# Calculation of Top Of Descent distance
					{
						me.top_of_descent = 16;
						if(current_alt > 10000)
						{
							me.top_of_descent += 21;
							if(current_alt > 29000)
							{
								me.top_of_descent += 41.8;
								if(current_alt > 36000)
								{
									me.top_of_descent += 28;
									me.top_of_descent += (current_alt - 36000) / 1000 * 3.8;
								}
								else
								{
									me.top_of_descent += (current_alt - 29000) / 1000 * 4;
								}
							}
							else
							{
								me.top_of_descent += (current_alt - 10000) / 1000 * 2.2;
							}
							me.top_of_descent += 6.7;
						}
						else
						{
							me.top_of_descent += (current_alt - 3000) / 1000 * 3;
						}
						me.top_of_descent -= (destination_elevation / 1000 * 3);
						if((me.alt_setting.getValue() > 24000)
							and (me.alt_setting.getValue() >= current_alt))
						{
							if(me.remaining_distance.getValue() < (me.top_of_descent + 10))
							{
								me.vnav_mcp_reset.setValue(1);
								copilot("Reset MCP ALT");
							}
						}
						else
						{
							if(me.remaining_distance.getValue() < me.top_of_descent)
							{
								me.vnav_descent.setValue(1);
								me.intervention_alt = me.alt_setting.getValue();
							}
						}
					}
				}
				if(getprop("/autopilot/route-manager/active"))
				{
					var groundspeed = getprop("/velocities/groundspeed-kt");
					var f= flightplan(); 
#					var topClimb = f.pathGeod(0, 100);
					var topDescent = f.pathGeod(-1, -me.top_of_descent);
					var targetCourse = f.pathGeod(-1, -me.remaining_distance.getValue());
					var leg = f.currentWP(); 
					var enroute = leg.courseAndDistanceFrom(targetCourse);
					setprop("autopilot/internal/course-deg", enroute[0]);

					var courseCoord = geo.Coord.new().set_latlon(targetCourse.lat, targetCourse.lon); 
					var geocoord = geo.aircraft_position(); 
					var CourseError = (geocoord.course_to(courseCoord) - getprop("orientation/heading-deg"));
					if(CourseError < -180) CourseError += 360;
					elsif(CourseError > 180) CourseError -= 360;
					if(CourseError > 0)
					{
						CourseError = geocoord.distance_to(courseCoord);
					}
					else
					{
						CourseError = (geocoord.distance_to(courseCoord) * -1);
					}
					var cCourseError = CourseError * 0.01;
					if(cCourseError > 4.0) cCourseError = 4.0;
					elsif(cCourseError < -4.0) cCourseError = -4.0;
					setprop("autopilot/internal/course-error", cCourseError);

#					var tcNode = me.NDSymbols.getNode("tc", 1);
#					tcNode.getNode("longitude-deg", 1).setValue(topClimb.lon);
#					tcNode.getNode("latitude-deg", 1).setValue(topClimb.lat);

					var tdNode = me.NDSymbols.getNode("td", 1);
					tdNode.getNode("longitude-deg", 1).setValue(topDescent.lon);
					tdNode.getNode("latitude-deg", 1).setValue(topDescent.lat);
					if(enroute[1] != nil)	# Course deg
					{
						var wpt_eta = (enroute[1] / groundspeed * 3600);
						var gmt = getprop("instrumentation/clock/indicated-sec");
						if((getprop("gear/gear[1]/wow") == 0) and (getprop("gear/gear[2]/wow") == 0))
						{
							gmt += (wpt_eta + 30);
							var gmt_hour = int(gmt / 3600);
							if(gmt_hour > 24)
							{
								gmt_hour -= 24;
								gmt -= 24 * 3600;
							}
							me.estimated_time_arrival.setValue(gmt_hour * 100 + int((gmt - gmt_hour * 3600) / 60));
							var change_wp = abs(getprop("/autopilot/route-manager/wp[1]/bearing-deg") - me.heading_magnetic.getValue());
							if(change_wp > 180) change_wp = (360 - change_wp);
							if(((me.heading_change_rate * change_wp) > wpt_eta)
								or (enroute[1] < 0.6))
 	 						{
 	 							if(atm_wpt < (max_wpt - 1))
								{
									atm_wpt += 1;
									props.globals.getNode("/autopilot/route-manager/current-wp").setValue(atm_wpt);
									me.altitude_restriction = getprop("/autopilot/route-manager/route/wp["~atm_wpt~"]/altitude-ft");
									if(me.altitude_restriction > 0)
									{
										me.altitude_restriction = int((me.altitude_restriction + 50) / 100 )* 100;
									}
								}
							}
						}
					}
				}
			}
		}elsif(me.step==6)
		{
			if(getprop("/controls/flight/flaps") == 0)
			{
				me.auto_popup.setValue(0);
			}
			var ma_spd = getprop("/instrumentation/airspeed-indicator/indicated-mach");
			me.pfd_mach_ind.setValue(ma_spd * 1000);
			me.pfd_mach_target.setValue(getprop("autopilot/settings/target-speed-mach") * 1000);
			var banklimit = getprop("/instrumentation/afds/inputs/bank-limit-switch");
			if(banklimit==0)
			{
				var lim = 0;
				me.heading_change_rate = 0;
				if(ma_spd > 0.85)
				{
					lim=5;
					me.heading_change_rate = 4.9 * 0.7;
				}
				elsif(ma_spd > 0.6666)
				{
					lim=10;
					me.heading_change_rate = 2.45 * 0.7;
				}
				elsif(ma_spd > 0.5)
				{
					lim=20;
					me.heading_change_rate = 1.125 * 0.7;
				}
				elsif(ma_spd > 0.3333)
				{
					lim=30;
					me.heading_change_rate = 0.625 * 0.7;
				}
				else
				{
					lim=35;
					me.heading_change_rate = 0.55 * 0.7;
				}
				props.globals.getNode("/instrumentation/afds/settings/bank-max").setValue(lim);
				lim = -1 * lim;
				props.globals.getNode("/instrumentation/afds/settings/bank-min").setValue(lim);
			}
		}

		me.step+=1;
		if(me.step>6) me.step =0;
	},
};
#####################


var afds = AFDS.new();

var afds_init_listener = setlistener("/sim/signals/fdm-initialized", func {
	removelistener(afds_init_listener);
	settimer(update_afds,6);
	print("AFDS System ... check");
});

var update_afds = func {
	afds.ap_update();
	settimer(update_afds, 0);
}
