# ####################################################################################
# ####################################################################################
# Nasal script to manage winch-launch for JSBSIM gliders (like asw20)
#
# ####################################################################################
# Author: Klaus Kerner
# Version: 2013-01-01
#
# ####################################################################################
# To Do's
#
# - behaviour of winch not realistic enough (feedback from users)
#
# ####################################################################################
# Concepts:
# 1. check, whether the initial conditions are fullfilled:
#    - we are on ground
#    - we have no speed
#    - up to now there is no winch placed
#    and if we are fine,place a winch in front of the plane and 
#    initialize all relevant parameters
# 2. attach to and run winch
#    The winch applies a certain force on the rope contact location at the plane. This
#    force is dependent on several factors: rope speed, rope angle (glider altitude), 
#    nominal pull force (dependend on glider type), ...
#    Rope speed: The force is constant up to 85% of max rope speed. 
#                From 85% up to 100% of max. rope speed the force decreases to 0%. 
#    Rope angle: Up to 70% the force does not change. From 70% up to 100% (the 
#                automatic release angle) the force will decrease to 30%. 
# 3. release from winch
#    - by reaching conditions
#    - manually
# 4. and finally remove it 


# ###  IMPORTANT  ###  IMPORTANT  ###  IMPORTANT #####################################
# ## essential proterties from the jsbsim FDM, that are required for working winch
# /fdm/jsbsim/fcs/winch-cmd-norm                         created by jsbsim config file
#                                                          1: winch is engaged
#                                                          0: winch is not engaged
# /fdm/jsbsim/external_reactions/winchx/magnitude        created by jsbsim config file
# /fdm/jsbsim/external_reactions/winchy/magnitude        created by jsbsim config file
# /fdm/jsbsim/external_reactions/winchz/magnitude        created by jsbsim config file

# ## existing proterties, that are used to handle the winch
# /gear/gear/wow                                         indicating contact to ground
# /orientation/heading-deg                               indicating current heading
# /orientation/pitch-deg                                 indicating current pitch
# /orientation/roll-deg                                  indicating current roll
# /sim/presets/heading-deg                               initial heading at runway
# /sim/presets/latitude-deg                              initial position at runway
# /sim/presets/longitude-deg                             initial position at runway

# ## new properties, used to manage the winch
# /sim/glider/winch/conf/rope_initial_length_m           initial rope length
# /sim/glider/winch/conf/pull_max_lbs                    max. pulling force
# /sim/glider/winch/conf/pull_max_speed_mps              max. pulling speed
# /sim/glider/winch/conf/k_speed_x1                      parameter for force reduction
# /sim/glider/winch/conf/k_speed_y1                      parameter for force reduction
# /sim/glider/winch/conf/k_speed_x2                      parameter for force reduction
# /sim/glider/winch/conf/k_speed_y2                      parameter for force reduction
# /sim/glider/winch/conf/k_angle_x1                      parameter for force reduction
# /sim/glider/winch/conf/k_angle_y1                      parameter for force reduction
# /sim/glider/winch/conf/k_angle_x2                      parameter for force reduction
# /sim/glider/winch/conf/k_angle_y2                      parameter for force reduction
# /sim/glider/winch/glob/rope_initial_length_m           global rope length
# /sim/glider/winch/glob/pull_max_lbs                    global max. pulling force
# /sim/glider/winch/glob/pull_max_speed_mps              global max. pulling speed
# /sim/glider/winch/glob/k_speed_x1                      parameter for force reduction
# /sim/glider/winch/glob/k_speed_y1                      parameter for force reduction
# /sim/glider/winch/glob/k_speed_x2                      parameter for force reduction
# /sim/glider/winch/glob/k_speed_y2                      parameter for force reduction
# /sim/glider/winch/glob/k_angle_x1                      parameter for force reduction
# /sim/glider/winch/glob/k_angle_y1                      parameter for force reduction
# /sim/glider/winch/glob/k_angle_x2                      parameter for force reduction
# /sim/glider/winch/glob/k_angle_y2                      parameter for force reduction
# /sim/glider/winch/work/wp-lat-deg                      storing winch position
# /sim/glider/winch/work/wp-lon-deg                      storing winch position
# /sim/glider/winch/work/wp-alti-m                       storing winch position
# /sim/glider/winch/work/speed                           current speed of rope
# /sim/glider/winch/work/rope_m                          current length of rope
# /sim/glider/winch/flags/placed                          flag for existence of winch
#                                                          1: winch placed
#                                                          0: winch not placed
# /sim/glider/winch/flags/used                            bool storing allready used 
#                                                          winch to prevent against
#                                                          reconnecting
# /sim/glider/winch/flags/pull                            bool storing working of winch
#                                                          1: winch is working
#                                                          0: winch is not working
# /sim/glider/winch/flags/hooked                          bool storing release from tow
#                                                          5: tow allready released
#                                                          1. tow not released
# /sim/glider/winchrope/flags/exist                       bool storing existence of rope
#
#
# flags matrix
#  function()      placed used  pull  hooked  exist
#  at startup      0      -     -     -       - 
#  createWinch()   1      0     -     1       1 
#  startWinch()   (1)     1     1    (1)     (1) 
#  runWinch()     (1)    (1)   (1)   (1)     (1) 
#  releaseWinch() (1)    (1)   (1)    0      (1)      
#  removeWinch()   0     (1)    0    (0)      0


# ####################################################################################
# ####################################################################################
# global variables for this script
  var winch_timeincrement_s = 0;                       # timer increment



# ####################################################################################
# ####################################################################################
# set winch parameters to global values, if not properly defined by plane setup-file
# store global values or plane-specific values to prepare for reset option
var globalsWinch = func {
  var glob_rope_initial_length_m = 800;                 # default length 800m
  var glob_pull_max_lbs = 1102;                         # default force 1102lbs=500daN
  var glob_pull_max_speed_mps = 40;                     # default speed 40m/s
  var glob_k_speed_x1 = 0.85;
  var glob_k_speed_y1 = 1.00;
  var glob_k_speed_x2 = 1.00;
  var glob_k_speed_y2 = 0.00;
  var glob_k_angle_x1 = 0.75;
  var glob_k_angle_y1 = 1.00;
  var glob_k_angle_x2 = 1.00;
  var glob_k_angle_y2 = 0.30;
  # set initial rope length if not defined from "plane"-set.xml 
  if ( getprop("sim/glider/winch/conf/rope_initial_length_m") == nil ) {
    setprop("sim/glider/winch/conf/rope_initial_length_m", 
             glob_rope_initial_length_m);
    setprop("sim/glider/winch/glob/rope_initial_length_m", 
             glob_rope_initial_length_m);
  }
  else { # if defined, set global to plane specific for reset option
    setprop("sim/glider/winch/glob/rope_initial_length_m", 
            getprop("sim/glider/winch/conf/rope_initial_length_m"));
  }
  
  # set max force for pulling, if not defined from "plane"-set.xml
  if ( getprop("sim/glider/winch/conf/pull_max_lbs") == nil ) {
    setprop("sim/glider/winch/conf/pull_max_lbs", glob_pull_max_lbs);
    setprop("sim/glider/winch/glob/pull_max_lbs", glob_pull_max_lbs);
  }
  else { # if defined, set global to plane specific for reset option
    setprop("sim/glider/winch/glob/pull_max_lbs", 
            getprop("sim/glider/winch/conf/pull_max_lbs"));
  }
  
  # set max speed for pulling, if not defined from "plane"-set.xml
  if ( getprop("sim/glider/winch/conf/pull_max_speed_mps") == nil ) {
    setprop("sim/glider/winch/conf/pull_max_speed_mps", glob_pull_max_speed_mps);
    setprop("sim/glider/winch/glob/pull_max_speed_mps", glob_pull_max_speed_mps);
  }
  else { # if defined, set global to plane specific for reset option
    setprop("sim/glider/winch/glob/pull_max_speed_mps", 
            getprop("sim/glider/winch/conf/pull_max_speed_mps"));
  }
  
  # set ref-poing x1 for speed correction, if not defined from "plane"-set.xml
  if ( getprop("sim/glider/winch/conf/k_speed_x1") == nil ) {
    setprop("sim/glider/winch/conf/k_speed_x1", glob_k_speed_x1);
    setprop("sim/glider/winch/glob/k_speed_x1", glob_k_speed_x1);
  }
  else { # if defined, set global to plane specific for reset option
    setprop("sim/glider/winch/glob/k_speed_x1", 
            getprop("sim/glider/winch/conf/k_speed_x1"));
  }
  
  # set ref-poing y1 for speed correction, if not defined from "plane"-set.xml
  if ( getprop("sim/glider/winch/conf/k_speed_y1") == nil ) {
    setprop("sim/glider/winch/conf/k_speed_y1", glob_k_speed_y1);
    setprop("sim/glider/winch/glob/k_speed_y1", glob_k_speed_y1);
  }
  else { # if defined, set global to plane specific for reset option
    setprop("sim/glider/winch/glob/k_speed_y1", 
            getprop("sim/glider/winch/conf/k_speed_y1"));
  }
  
  # set ref-poing x2 for speed correction, if not defined from "plane"-set.xml
  if ( getprop("sim/glider/winch/conf/k_speed_x2") == nil ) {
    setprop("sim/glider/winch/conf/k_speed_x2", glob_k_speed_x2);
    setprop("sim/glider/winch/glob/k_speed_x2", glob_k_speed_x2);
  }
  else { # if defined, set global to plane specific for reset option
    setprop("sim/glider/winch/glob/k_speed_x2", 
            getprop("sim/glider/winch/conf/k_speed_x2"));
  }
  
  # set ref-poing y2 for speed correction, if not defined from "plane"-set.xml
  if ( getprop("sim/glider/winch/conf/k_speed_y2") == nil ) {
    setprop("sim/glider/winch/conf/k_speed_y2", glob_k_speed_y2);
    setprop("sim/glider/winch/glob/k_speed_y2", glob_k_speed_y2);
  }
  else { # if defined, set global to plane specific for reset option
    setprop("sim/glider/winch/glob/k_speed_y2", 
            getprop("sim/glider/winch/conf/k_speed_y2"));
  }
  
  # set ref-poing x1 for angle correction, if not defined from "plane"-set.xml
  if ( getprop("sim/glider/winch/conf/k_angle_x1") == nil ) {
    setprop("sim/glider/winch/conf/k_angle_x1", glob_k_angle_x1);
    setprop("sim/glider/winch/glob/k_angle_x1", glob_k_angle_x1);
  }
  else { # if defined, set global to plane specific for reset option
    setprop("sim/glider/winch/glob/k_angle_x1", 
            getprop("sim/glider/winch/conf/k_angle_x1"));
  }
  
  # set ref-poing y1 for angle correction, if not defined from "plane"-set.xml
  if ( getprop("sim/glider/winch/conf/k_angle_y1") == nil ) {
    setprop("sim/glider/winch/conf/k_angle_y1", glob_k_angle_y1);
    setprop("sim/glider/winch/glob/k_angle_y1", glob_k_angle_y1);
  }
  else { # if defined, set global to plane specific for reset option
    setprop("sim/glider/winch/glob/k_angle_y1", 
            getprop("sim/glider/winch/conf/k_angle_y1"));
  }
  
  # set ref-poing x2 for angle correction, if not defined from "plane"-set.xml
  if ( getprop("sim/glider/winch/conf/k_angle_x2") == nil ) {
    setprop("sim/glider/winch/conf/k_angle_x2", glob_k_angle_x2);
    setprop("sim/glider/winch/glob/k_angle_x2", glob_k_angle_x2);
  }
  else { # if defined, set global to plane specific for reset option
    setprop("sim/glider/winch/glob/k_angle_x2", 
            getprop("sim/glider/winch/conf/k_angle_x2"));
  }
  
  # set ref-poing y2 for angle correction, if not defined from "plane"-set.xml
  if ( getprop("sim/glider/winch/conf/k_angle_y2") == nil ) {
    setprop("sim/glider/winch/conf/k_angle_y2", glob_k_angle_y2);
    setprop("sim/glider/winch/glob/k_angle_y2", glob_k_angle_y2);
  }
  else { # if defined, set global to plane specific for reset option
    setprop("sim/glider/winch/glob/k_angle_y2", 
            getprop("sim/glider/winch/conf/k_angle_y2"));
  }
  
} # End Function globalsWinch



# ####################################################################################
# ####################################################################################
# reset winch parameters to global values
var resetWinch = func {
  # set rope length to global
  setprop("sim/glider/winch/conf/rope_initial_length_m", 
            getprop("sim/glider/winch/glob/rope_initial_length_m"));
  
  # set max force for pulling to global
  setprop("sim/glider/winch/conf/pull_max_lbs", 
            getprop("sim/glider/winch/glob/pull_max_lbs"));
  
  # set max speed for pulling to global
  setprop("sim/glider/winch/conf/pull_max_speed_mps", 
            getprop("sim/glider/winch/glob/pull_max_speed_mps"));
  
  # set speed correction for pulling to global
  setprop("sim/glider/winch/conf/k_speed_x1", 
            getprop("sim/glider/winch/glob/k_speed_x1"));
  setprop("sim/glider/winch/conf/k_speed_y1", 
            getprop("sim/glider/winch/glob/k_speed_y1"));
  setprop("sim/glider/winch/conf/k_speed_x2", 
            getprop("sim/glider/winch/glob/k_speed_x2"));
  setprop("sim/glider/winch/conf/k_speed_y2", 
            getprop("sim/glider/winch/glob/k_speed_y2"));
  
  # set angle correction for pulling to global
  setprop("sim/glider/winch/conf/k_angle_x1", 
            getprop("sim/glider/winch/glob/k_angle_x1"));
  setprop("sim/glider/winch/conf/k_angle_y1", 
            getprop("sim/glider/winch/glob/k_angle_y1"));
  setprop("sim/glider/winch/conf/k_angle_x2", 
            getprop("sim/glider/winch/glob/k_angle_x2"));
  setprop("sim/glider/winch/conf/k_angle_y2", 
            getprop("sim/glider/winch/glob/k_angle_y2"));
  
} # End Function resetWinch



# ####################################################################################
# ####################################################################################
# Place winch model in correct location 
var placeWinch = func {
  # first check for an existing winch
  # if: winch exists, 
  #   print message and exit
  # else: (winch does not exist, )
  #   if plane is on ground
  #     get the position of the plane
  #     if plane is close enough to initial position on runway
  #       calculate position of winch relative to initial position on runway, 
  #     else: (plane is too far away from initial position)
  #       calculate position of winch relative to current position of plane
  #     place model
  #     set properties winch/flags/placed and jsbsim/fcs/winch-cmd-norm
  #     print message
  #   else: (plane is in air)
  #     print message and exit
  
  var rope_initial_length_m = getprop("sim/glider/winch/conf/rope_initial_length_m");
  
  
  if ( getprop("sim/glider/winch/flags/placed") == 1 ) {
    atc_msg("Winch allready placed"); 
  }
  else {
    if ( getprop("gear/gear/wow") ) { 
     # common variables
      var ac_pos = geo.aircraft_position(); 
      var ac_hd  = getprop("orientation/heading-deg");       # get heading of aircraft
      
     # setup winch
      # set pathes to relevant nodes in the property tree
      var winch_ai  = props.globals.getNode("ai/models/winch", 1);
      var winch_mod = props.globals.getNode("models", 1);
      var winch_sim = props.globals.getNode("sim/glider/winch/work", 1);
      var winch_flg = props.globals.getNode("sim/glider/winch/flags", 1);
      # get initial runway position
      var ipos_lat_deg = getprop("sim/presets/latitude-deg");
      var ipos_lon_deg = getprop("sim/presets/longitude-deg");
      var ipos_hd_deg  = getprop("sim/presets/heading-deg");
      var ipos_alt_m = geo.elevation(ipos_lat_deg,ipos_lon_deg);
      var ipos_geo = geo.Coord.new().set_latlon( 
                      ipos_lat_deg, ipos_lon_deg, ipos_alt_m); 
      # offset to initial position
      # if deviation is too much, locate winch in front of glider, otherwise locate 
      # winch to end of runway
      var deviation = (ac_pos.distance_to(ipos_geo)); 
      if ( deviation > 200) { 
        var wpos_geo = ac_pos.apply_course_distance( ac_hd , 
                   rope_initial_length_m ); 
      }
      else {
        var wpos_geo = ipos_geo.apply_course_distance( ipos_hd_deg , 
                   rope_initial_length_m ); 
      }
      var wpalt = geo.elevation(wpos_geo.lat(), wpos_geo.lon()); 
      wpos_geo.set_alt(wpalt);
      # get the next free ai id and model id
      var freeModelid = getFreeModelID();
      freeModelid = 9997;
      # setup working properties
      winch_sim.getNode("id_AI", 1).setIntValue(9997);
      winch_sim.getNode("id_model", 1).setIntValue(freeModelid);
      winch_sim.getNode("wp-lat-deg", 1).setValue(wpos_geo.lat());
      winch_sim.getNode("wp-lon-deg", 1).setValue(wpos_geo.lon());
      winch_sim.getNode("wp-alti-m", 1).setValue(wpos_geo.alt());
      # setup ai properties
      winch_ai.getNode("id", 1).setIntValue(9997);
      winch_ai.getNode("callsign", 1).setValue("winch");
      winch_ai.getNode("valid", 1).setBoolValue(1);
      winch_ai.getNode("position/latitude-deg", 1).setValue(wpos_geo.lat());
      winch_ai.getNode("position/longitude-deg", 1).setValue(wpos_geo.lon());
      winch_ai.getNode("position/altitude-ft", 1).setValue(wpos_geo.alt() * M2FT);
      winch_ai.getNode("orientation/true-heading-deg", 1).setValue(ac_hd);
      winch_ai.getNode("orientation/pitch-deg", 1).setValue(0);
      # setup model properties
      winch_mod.model = winch_mod.getChild("model", freeModelid, 1);
      winch_mod.model.getNode("path", 1).setValue(
            "/Models/Airport/supacat_winch.ac");
      winch_mod.model.getNode("longitude-deg-prop", 1).setValue(
            "ai/models/winch/position/longitude-deg");
      winch_mod.model.getNode("latitude-deg-prop", 1).setValue(
            "ai/models/winch/position/latitude-deg");
      winch_mod.model.getNode("elevation-ft-prop", 1).setValue(
            "ai/models/winch/position/altitude-ft");
      winch_mod.model.getNode("heading-deg-prop", 1).setValue(
            "ai/models/winch/orientation/true-heading-deg");
      winch_mod.model.getNode("pitch-deg-prop", 1).setValue(
            "ai/models/winch/orientation/pitch-deg");
      winch_mod.model.getNode("load", 1).remove();
      # set flags for placed winch and prevent against additional winches
      winch_flg.getNode("placed", 1).setIntValue(1);
      winch_flg.getNode("used", 1).setIntValue(0);
      winch_flg.getNode("hooked", 1).setIntValue(1);
      
     # setup rope and parachute for animation
      # set pathes to relevant nodes in the property tree
      var winchrope_ai  = props.globals.getNode("ai/models/winchrope", 1);
      var winchrope_mod = props.globals.getNode("models", 1);
      var winchrope_sim = props.globals.getNode("sim/glider/winchrope/work", 1);
      var winchrope_flg = props.globals.getNode("sim/glider/winchrope/flags", 1);
      # initial rope position, at nose of glider
      var rope_length_m = (ac_pos.direct_distance_to(wpos_geo));
      var rope_heading_deg = (ac_pos.course_to(wpos_geo));
      var rope_pitch_deg = 10; # must be corrected by arcsin function for glider to winch height relation
      var install_distance_m = 0.05; # 0.05m in front of ref-point of glider, must be tuned
      var install_alt_m = -1; # 1m below ref-point of glider, must be tuned
      var rope_pos    = ac_pos.apply_course_distance( ac_hd , install_distance_m );   
      rope_pos.set_alt(ac_pos.alt() + install_alt_m);       # correct hight by pitch
      # get the next free ai id and model id
      var freeModelid = getFreeModelID();
      freeModelid = 9996;
      # setup working properties
      winchrope_sim.getNode("id_AI", 1).setIntValue(9996);
      winchrope_sim.getNode("id_model", 1).setIntValue(freeModelid);
      winchrope_sim.getNode("rope_length_m", 1).setValue(rope_length_m);
      winchrope_sim.getNode("rope_heading_deg", 1).setValue(rope_heading_deg);
      winchrope_sim.getNode("rope_pitch_deg", 1).setValue(rope_pitch_deg);
      winchrope_sim.getNode("hook_x_m", 1).setValue(install_distance_m);
      winchrope_sim.getNode("hook_z_m", 1).setValue(install_alt_m);
      # setup ai properties
      winchrope_ai.getNode("id", 1).setIntValue(9996);
      winchrope_ai.getNode("callsign", 1).setValue("winchrope");
      winchrope_ai.getNode("valid", 1).setBoolValue(1);
      winchrope_ai.getNode("position/latitude-deg", 1).setValue(rope_pos.lat());
      winchrope_ai.getNode("position/longitude-deg", 1).setValue(rope_pos.lon());
      winchrope_ai.getNode("position/altitude-ft", 1).setValue(rope_pos.alt() * M2FT);
      winchrope_ai.getNode("orientation/true-heading-deg", 1).setValue(rope_heading_deg);
      winchrope_ai.getNode("orientation/pitch-deg", 1).setValue(0);
      # setup model properties
      winchrope_mod.model = winchrope_mod.getChild("model", freeModelid, 1);
      winchrope_mod.model.getNode("path", 1).setValue(
            "Aircraft/asw20/Models/Ropes/winchrope.xml");
      winchrope_mod.model.getNode("longitude-deg-prop", 1).setValue(
            "ai/models/winchrope/position/longitude-deg");
      winchrope_mod.model.getNode("latitude-deg-prop", 1).setValue(
            "ai/models/winchrope/position/latitude-deg");
      winchrope_mod.model.getNode("elevation-ft-prop", 1).setValue(
            "ai/models/winchrope/position/altitude-ft");
      winchrope_mod.model.getNode("heading-deg-prop", 1).setValue(
            "ai/models/winchrope/orientation/true-heading-deg");
      winchrope_mod.model.getNode("pitch-deg-prop", 1).setValue(
            "ai/models/winchrope/orientation/pitch-deg");
      winchrope_mod.model.getNode("load", 1).remove();
      # setup flags
      winchrope_flg.getNode("exist", 1).setIntValue(1);
      
     # finally send message
      atc_msg("Winch placed in front of you");
    }
    else { 
      atc_msg("winch in air useless, no winch placed"); 
    }
  }
} # End Function placeWinch




# ####################################################################################
# get the next free id of models/model members
# required for animation of towing rope
# should be shifted to a generic module as same function exists in dragrobot.nas
var getFreeModelID = func {
  
  #local variables
  var modelid = 0;                                 # for the next unsused id
  var modelobjects = {};                           # vector to keep all model objects
  
  modelobjects = props.globals.getNode("models", 1).getChildren(); # get model objects
  foreach ( var member; modelobjects ) { 
    # get data from member
    if ( (var c = member.getNode("id")) != nil) {
      var id = c.getValue();
      if ( modelid <= id ) {
        modelid = id +1;
      } 
    }
  }
  return(modelid);
}




# ####################################################################################
# ####################################################################################
# starts the winch
var startWinch = func {
  # first check for an existing winch
  # if the winch exists 
  #   if the winch was never used
  #     close the hook, 
  #     level the plane
  #     gets positions of plane and winch
  #     calculates distance and assign to property rope_m
  #     sets property speed
  #     set flags used and pull
  #   if used exit
  # if not exit
  
  if ( getprop("sim/glider/winch/flags/placed") == 1 ) {     # check for placed winch
    if ( getprop("sim/glider/winch/flags/used") == 0 ) {     # check for unused winch
      setprop("fdm/jsbsim/fcs/winch-cmd-norm",1);           # closes the hook
      atc_msg("hook closed"); 
      setprop("orientation/roll-deg",0);                    # level the plane
      atc_msg("glider leveled"); 
      atc_msg("winch starts running"); 
      var wp = geo.Coord.new().set_latlon( 
          (getprop("sim/glider/winch/work/wp-lat-deg")),
          (getprop("sim/glider/winch/work/wp-lon-deg")),
          (getprop("sim/glider/winch/work/wp-alti-m")));    # gets winch position
      var ac = geo.aircraft_position();                     # gets aircraft position
      var dd_m = (ac.direct_distance_to(wp));               # gets distance 
      setprop("sim/glider/winch/work/rope_m", dd_m );       # set the rope length
      setprop("sim/glider/winch/work/speed",0);             # winch has speed 0
      setprop("sim/glider/winch/flags/used", 1);             # one time hooked, never 
                                                            # hook again
      setprop("sim/glider/winch/flags/pull",1);              # winch is pulling
    }
    else {
      atc_msg("Sorry, only one time hooking");
    }
  }
  else {                                                    # failure: no winch placed
    atc_msg("no winch");
  }

} # End Function startWinch



# ####################################################################################
# ####################################################################################
# release the winch
var releaseWinch = func {
  # first check for the winch is pulling
  # if yes, 
  #   opens the hook, 
  #   sets the forces to zero
  #   print a message
  # if no, 
  #   print a message and exit
  
  if ( getprop("sim/glider/winch/flags/pull") ) {           # is the winch pulling
    setprop("fdm/jsbsim/fcs/winch-cmd-norm",0);                 # opens the hook
    setprop("fdm/jsbsim/external_reactions/winchx/magnitude", 0);  # set the
    setprop("fdm/jsbsim/external_reactions/winchy/magnitude", 0);  # forces 
    setprop("fdm/jsbsim/external_reactions/winchz/magnitude", 0);  # to zero
    setprop("sim/glider/winch/flags/hooked",0);
setprop("sim/glider/winch/flags/pull",0);
    atc_msg("Hook opened, tow released");
    print("Hook opened, tow released");
  }
  else {                                                        # winch not working
    atc_msg("not hooked to a winch");
  }
  
} # End Function releaseWinch



# ####################################################################################
# ####################################################################################
# remove the winch
var removeWinch = func {
  # local variables
  var modelsNode = {};
  
  # look for allready existing ai object with callsign "winchrope"
  # check for the winch rope is still existent
  # if yes, 
  #   remove the winch rope from the property tree ai/models
  #   remove the winch rope from the property tree models/
  #   remove the winch rope working properties
  # if no, 
  #   do nothing
  
  if ( getprop("/sim/glider/winchrope/flags/exist") == 1 ) {   # does the winch rope exist?
    # remove 3d model from scenery
    # identification is /models/model[x] with x=id_model
    var id_model = getprop("sim/glider/winchrope/work/id_model");
    modelsNode = "models/model[" ~ id_model ~ "]";
    props.globals.getNode(modelsNode).remove();
    props.globals.getNode("ai/models/winchrope").remove();
    props.globals.getNode("sim/glider/winchrope/work").remove();
    atc_msg("winch rope removed");
    setprop("/sim/glider/winchrope/flags/exist", 0);
  }
  else {                                                     # do nothing
    atc_msg("winch rope does not exist");
  }
  
  
  # look for allready existing ai object with callsign "winch"
  # check for the winch is still existent
  # if yes, 
  #   remove the winch from the property tree ai/models
  #   remove the winch from the property tree models/
  #   remove the winch working properties
  # if no, 
  #   do nothing
  
  if ( getprop("/sim/glider/winch/flags/placed") == 1 ) {   # does the winch exist?
    # remove 3d model from scenery
    # identification is /models/model[x] with x=id_model
    var id_model = getprop("sim/glider/winch/work/id_model");
    modelsNode = "models/model[" ~ id_model ~ "]";
    props.globals.getNode(modelsNode).remove();
    props.globals.getNode("ai/models/winch").remove();
    props.globals.getNode("sim/glider/winch/work").remove();
    atc_msg("winch rope removed");
    setprop("/sim/glider/winch/flags/pull", 0);
    setprop("/sim/glider/winch/flags/placed", 0);
  }
  else {                                                     # do nothing
    atc_msg("winch does not exist");
  }

} # End Function removeWinch



# ####################################################################################
# ####################################################################################
# let the winch pull the plane up into the sky
var runWinch = func {
  # strategy, 
  # - pull with max. force
  # - pilot to control speed by aoa
  
  # if the winch is pulling
  #   get the position of the winch
  #   get the position of the glider
  #   get heading of glider
  #   get heading to winch of glider
  #   get direct distance (hypothenuse)
  #   get distance (kathete)
  #   get pitch of glider
  #   get roll of glider
  #   get the old rope-length
  #   calculate current rope-speed
  #   corredt false length
  #   calculate relevant angles for force-transformation
  #   calculate according sine and cosine values
  #   calculate the force vectors at the plane
  #   calculate the angle of resulting force vector an glider
  #   if angle is high enough
  #     release winch
  #   if angle is flat
  #     apply values to coresponding properties
  
  
  var roperelease_deg = 70;  # release winch automatically
  var install_distance_m = 0.05; # 0.05m in front of ref-point of glider, must be tuned
  var install_alt_m = -1; # 1m below ref-point of glider, must be tuned

  var pullmax = getprop("sim/glider/winch/conf/pull_max_lbs");
  var speedmax = getprop("sim/glider/winch/conf/pull_max_speed_mps");
  
  var k_speed_x1 = getprop("sim/glider/winch/conf/k_speed_x1");
  var k_speed_y1 = getprop("sim/glider/winch/conf/k_speed_y1");
  var k_speed_x2 = getprop("sim/glider/winch/conf/k_speed_x2");
  var k_speed_y2 = getprop("sim/glider/winch/conf/k_speed_y2");
  var k_angle_x1 = getprop("sim/glider/winch/conf/k_angle_x1");
  var k_angle_y1 = getprop("sim/glider/winch/conf/k_angle_y1");
  var k_angle_x2 = getprop("sim/glider/winch/conf/k_angle_x2");
  var k_angle_y2 = getprop("sim/glider/winch/conf/k_angle_y2");
  

  if ( winch_timeincrement_s == 0 ) {
    var deltatime_s = getprop("sim/time/delta-sec");
  }
  else {
    var deltatime_s = winch_timeincrement_s;
  }
  
  if (getprop ("sim/glider/winch/flags/pull")) {        # is a winch placed and working
    var wp = geo.Coord.new().set_latlon( 
        (getprop("sim/glider/winch/work/wp-lat-deg")),
        (getprop("sim/glider/winch/work/wp-lon-deg")),
        (getprop("sim/glider/winch/work/wp-alti-m"))); # gets winch position
    # if hooked, calculate forces and update rope animation
    if (getprop("sim/glider/winch/flags/hooked")) {
        var ac = geo.aircraft_position();                  # aircraft position
        var hd_deg = getprop("orientation/heading-deg");   # heading of aircraft
        var hw_deg = (ac.course_to(wp));                   # heading to winch
        var dd_m = (ac.direct_distance_to(wp));            # the actual rope length
      # calculate forces
        var dp_m = (ac.distance_to(wp));                   # projected distance to winch
        var pt_deg = getprop("orientation/pitch-deg");     # pitch of aircraft
        var rt_deg = getprop("orientation/roll-deg");      # roll of aircraft
        var dd_old_m = getprop("sim/glider/winch/work/rope_m");  # last rope length
        var ropespeed = (dd_old_m - dd_m)/deltatime_s;     # the speed of the rope
        # correct a failure, if the projected length is larger than direct length
        if (dp_m > dd_m) { dp_m = dd_m;}                   
        # calculate main angles
        var alpha = math.acos( (dp_m / dd_m) );
        var beta = ( hw_deg - hd_deg ) * 0.01745;
        var gamma = pt_deg * 0.01745;
        var delta = rt_deg * 0.01745;
        # get trigonometric values from angles
        var sina = math.sin(alpha);
        var cosa = math.cos(alpha);
        var sinb = math.sin(beta);
        var cosb = math.cos(beta);
        var sing = math.sin(gamma);
        var cosg = math.cos(gamma);
        var sind = math.sin(delta);
        var cosd = math.cos(delta);
        # calculate force correction factors due to speed and rope angle
        var k_force_speed = k_speed_y1 + (k_speed_y2 - k_speed_y1)/
                                         (k_speed_x2 - k_speed_x1)*
                                         (ropespeed/speedmax - k_speed_x1);
        var k_force_angle = k_angle_y1 + (k_angle_y2 - k_angle_y1)/
                                         (k_angle_x2 - k_angle_x1)*
                                         (alpha / 0.01745 / roperelease_deg - k_angle_x1);
        if ( k_force_speed > k_speed_y1 ) { k_force_speed = k_speed_y1; }
        if ( k_force_speed < k_speed_y2 ) { k_force_speed = k_speed_y2; }
        if ( k_force_angle > k_angle_y1 ) { k_force_angle = k_angle_y1; }
        if ( k_force_angle < k_angle_y2 ) { k_force_angle = k_angle_y2; }
        # global forces dependent on: alpha beta
        var fglobalx = pullmax * cosa * cosb;
        var fglobaly = pullmax * cosa * sinb;
        var fglobalz = pullmax * sina;
        # local forces dependent on pitch: gamma
        var flpitchx = fglobalx * cosg - fglobalz * sing;
        var flpitchy = fglobaly;
        var flpitchz = fglobalx * sing + fglobalz * cosg;
        # local forces dependent on roll: delta
        var flrollx  = flpitchx;
        var flrolly  = flpitchy * cosd + flpitchz * sind;
        var flrollz  = flpitchy * sind + flpitchz * cosd;
        # asigning to LOCAL coord of plane
        var forcex = flrollx;
        var forcey = flrolly;
        var forcez = flrollz;
        # calculates the force angle, used for automatic release
        var force_deg = math.asin( math.sqrt(forcey * forcey + forcez * forcez) 
          / math.sqrt(forcex * forcex + forcey * forcey + forcez * forcez) ) 
          / 0.01745; 
        # automatic release if criteria is reached
        if (force_deg > roperelease_deg) { 
          releaseWinch(); 
        } 
        # otherwise set the current forces
        else  { 
          forcex = forcex * k_force_speed * k_force_angle;
          forcey = forcey * k_force_speed * k_force_angle;
          forcez = forcez * k_force_speed * k_force_angle;
          setprop("fdm/jsbsim/external_reactions/winchx/magnitude",  forcex );
          setprop("fdm/jsbsim/external_reactions/winchy/magnitude",  forcey );
          setprop("fdm/jsbsim/external_reactions/winchz/magnitude",  forcez );
          setprop("sim/glider/winch/work/speed", ropespeed); 
          setprop("sim/glider/winch/work/rope_m", dd_m ); 
        }
      # update rope animation
        var hook_pos    = ac.apply_course_distance( hd_deg , install_distance_m );   
        hook_pos.set_alt(ac.alt() + install_alt_m); 
        var height = ac.alt() - wp.alt();
        if ( ac.alt() > wp.alt() ) {
          var wnpitchto = -math.asin((ac.alt()-wp.alt())/dd_m) / 0.01745;
        }
        else {
          var wnpitchto =  math.asin((ac.alt()-wp.alt())/dd_m) / 0.01745;
        }
        # update position of rope
        setprop("ai/models/winchrope/position/latitude-deg", hook_pos.lat());
        setprop("ai/models/winchrope/position/longitude-deg", hook_pos.lon());
        setprop("ai/models/winchrope/position/altitude-ft", hook_pos.alt() * M2FT);
        setprop("sim/glider/winchrope/work/latitude-deg", hook_pos.lat());
        setprop("sim/glider/winchrope/work/longitude-deg", hook_pos.lon());
        setprop("sim/glider/winchrope/work/altitude-m", hook_pos.alt());
        # update length of rope
        setprop("sim/glider/winchrope/work/xstretch_rel", dd_m);
        # update pitch and heading of rope
        setprop("sim/glider/winchrope/work/rope_heading_deg", hw_deg);
        setprop("sim/glider/winchrope/work/rope_pitch_deg", wnpitchto);
        setprop("ai/models/winchrope/orientation/true-heading-deg", hw_deg);
        setprop("ai/models/winchrope/orientation/pitch-deg", wnpitchto);
    }
    else {
      # and finally update the rope
      var para = geo.Coord.new().set_latlon( 
          (getprop("sim/glider/winchrope/work/latitude-deg")),
          (getprop("sim/glider/winchrope/work/longitude-deg")),
          (getprop("sim/glider/winchrope/work/altitude-m"))); # gets parachute position
      var lati = para.lat();
      var long = para.lon();
      var ground = geo.elevation(lati, long);
      if ( para.alt() > 0.0) { # at the moment only dirty workaround as elevation() seems to report elevation of parachute, and not the elevation above ground
        # update position of rope
        var sink = para.alt() - deltatime_s * 5.0;
        setprop("ai/models/winchrope/position/altitude-ft", sink * M2FT);
        setprop("sim/glider/winchrope/work/altitude-m", sink);
      }
      else {
        # remove winch
        removeWinch();
      }
    }
    
    settimer(runWinch, winch_timeincrement_s);
    
  }

} # End Function runWinch




var pulling = setlistener("sim/glider/winch/flags/pull", runWinch);
var initializing_winch = setlistener("sim/signals/fdm-initialized", globalsWinch);
