####    Single Starter/Generator electrical system    ####
####    Modified for DA20 Katana by Ron Jensen  ####
####    Syd Adams    ####
#### Based on Curtis Olson's nasal electrical code ####

var last_time = 0.0;
var vbus_volts = 0.0;
var ammeter_ave = 0.0;

var FDM = 0;
var OutPuts = props.globals.getNode("systems/electrical/outputs",1);
var Volts = props.globals.getNode("systems/electrical/volts",1);
var Amps = props.globals.getNode("systems/electrical/amps",1);
var BATT = props.globals.getNode("controls/electric/battery-switch",1);
var ALT = props.globals.getNode("controls/electric/engine/generator",1);
var EXT  = props.globals.getNode("controls/electric/external-power",1);
var NORM = 0.0416;
var DIMMER = props.globals.getNode("controls/lighting/instruments-norm",1);
var PDIMMER = props.globals.getNode("controls/lighting/panel-norm",1);
Battery={};
Alternator={};

#var battery = Battery.new(volts,amps,amp_hours,charge_percent,charge_amps);

Battery = {
    new : func {
        m = { parents : [Battery] };
        m.ideal_volts = arg[0];
        m.ideal_amps = arg[1];
        m.amp_hours = arg[2];
        m.charge_percent = arg[3];
        m.charge_amps = arg[4];
    return m;
    },

    apply_load : func {
        var amphrs_used = arg[0] * arg[1] / 3600.0;
        percent_used = amphrs_used / me.amp_hours;
        me.charge_percent -= percent_used;
        if ( me.charge_percent < 0.0 ) {
            me.charge_percent = 0.0;
        } elsif ( me.charge_percent > 1.0 ) {
        me.charge_percent = 1.0;
        }
        return me.amp_hours * me.charge_percent;
    },

    get_output_volts : func {
        x = 1.0 - me.charge_percent;
        tmp = -(3.0 * x - 1.0);
        factor = (tmp*tmp*tmp*tmp*tmp + 32) / 32;
        return me.ideal_volts * factor;
    },

    get_output_amps : func {
        x = 1.0 - me.charge_percent;
        tmp = -(3.0 * x - 1.0);
        factor = (tmp*tmp*tmp*tmp*tmp + 32) / 32;
        return me.ideal_amps * factor;
    }
};

# var alternator = Alternator.new("rpm-source",rpm_threshold,volts,amps);

Alternator = {
    new : func {
        m = { parents : [Alternator] };
        m.rpm_source =  props.globals.getNode(arg[0],1);
        m.rpm_threshold = arg[1];
        m.ideal_volts = arg[2];
        m.ideal_amps = arg[3];
        return m;
    },

    apply_load : func( amps, dt) {
        var factor = me.rpm_source.getValue() / me.rpm_threshold;
        if ( factor > 1.0 ){factor = 1.0;}
        available_amps = me.ideal_amps * factor;
        return available_amps - amps;
    },

    get_output_volts : func {
        var factor = me.rpm_source.getValue() / me.rpm_threshold;
        if ( factor > 1.0 ) {
            factor = 1.0;
            }
        return me.ideal_volts * factor;
    },

    get_output_amps : func {
        var factor = me.rpm_source.getValue() / me.rpm_threshold;
        if ( factor > 1.0 ) {
            factor = 1.0;
        }
        return me.ideal_amps * factor;
    }
};

#var battery = Battery.new(volts,amps,amp_hours,charge_percent,charge_amps);
var battery = Battery.new(23,20,20,1.0,5.0);
# var alternator = Alternator.new("rpm-source",rpm_threshold,volts,amps);
var alternator1 = Alternator.new("/engines/engine[0]/rpm",1175.0,26.0,13.0);

#####################################
setlistener("/sim/signals/fdm-initialized", func {
    props.globals.getNode("controls/electric/external-power",1).setBoolValue(0);
    props.globals.getNode("controls/electric/battery-switch",1).setBoolValue(1); 
    props.globals.getNode("controls/electric/engine[0]/generator",1).setBoolValue(1);
#    props.globals.getNode("controls/anti-ice/prop-heat",1).setBoolValue(0);
#    props.globals.getNode("controls/anti-ice/pitot-heat",1).setBoolValue(0);
    props.globals.getNode("controls/lighting/landing-lights[0]",1).setBoolValue(0);
    props.globals.getNode("controls/lighting/nav-lights",1).setBoolValue(0);
    props.globals.getNode("controls/lighting/strobe",1).setBoolValue(0);
#    props.globals.getNode("controls/lighting/taxi-light",1).setBoolValue(0);
#    props.globals.getNode("controls/cabin/fan",1).setBoolValue(0);
#    props.globals.getNode("controls/cabin/heat",1).setBoolValue(0);
    props.globals.getNode("controls/lighting/instrument-lights",1).setBoolValue(1);
    props.globals.getNode("controls/lighting/panel-lights",1).setBoolValue(1);
#    props.globals.getNode("controls/lighting/warning-test[0]",1).setBoolValue(0);
#    props.globals.getNode("controls/lighting/warning-test[1]",1).setBoolValue(0);
    FDM = 1;
    settimer(update_electrical,1);
    props.globals.getNode("/sim/signals/electrical-initialized",1).setBoolValue(1);
    print("Electrical System ... OK");
    });


var update_virtual_bus = func( dt ) {
    if(FDM != 1 ){return;}
    var PWR = props.globals.getNode("systems/electrical/serviceable",1).getBoolValue();
    var engine0_state = props.globals.getNode(1"/engines/engine[0]/running").getBoolValue();
    var alternator1_volts = 0.0;
    battery_volts = battery.get_output_volts();

    if (engine0_state){
    alternator1_volts = alternator1.get_output_volts();
    }
    props.globals.getNode("/engines/engine[0]/amp-v",1).setValue(alternator1_volts);

    external_volts = 0.0;
    load = 0.0;

    bus_volts = 0.0;
    power_source = nil;
    if ( BATT.getBoolValue()) {
        if(PWR){bus_volts = battery_volts;}
        power_source = "battery";
        }
   if ( ALT.getBoolValue() and (alternator1_volts > bus_volts) ) {
        if(PWR){bus_volts = alternator1_volts;}
        power_source = "alternator1";
        }
    if ( EXT.getBoolValue() and ( external_volts > bus_volts) ) {
        if(PWR){bus_volts = external_volts;}
        }
    load += electrical_bus(bus_volts);
    var avionics_switch = props.globals.getNode("controls/avionics/power").getBoolValue();
    if (avionics_switch){
    	load += avionics_bus(bus_volts);
    	} else {
    	avionics_bus(0);
    	}
    ammeter = 0.0;

    if ( bus_volts > 1.0 ) {
        load += 15.0;


    if ( power_source == "battery" ) {
        ammeter = -load;
        } else {
        ammeter = battery.charge_amps;
        }
    }

    if ( power_source == "battery" ) {
        battery.apply_load( load, dt );
        } elsif ( bus_volts > battery_volts ) {
        battery.apply_load( -battery.charge_amps, dt );
    }

    ammeter_ave = 0.8 * ammeter_ave + 0.2 * ammeter;

   Amps.setValue(ammeter_ave);
   Volts.setValue(bus_volts);
   return load;
}

var electrical_bus = func() {
    bus_volts = arg[0];
    load = 0.0;
    var starter_switch = props.globals.getNode("controls/engines/engine[0]/starter").getBoolValue();
    starter_volts = 0.0;
    if ( starter_switch) {
        starter_volts = bus_volts;
        }
    OutPuts.getNode("starter",1).setValue(starter_volts);

    var f_pump0 = props.globals.getNode("controls/engines/engine[0]/fuel-pump").getBoolValue();
    if ( f_pump0) {
        OutPuts.getNode("fuel-pump",1).setValue(bus_volts);
        } else {
        OutPuts.getNode("fuel-pump",1).setValue(0.0);
        }

#    if ( props.globals.getNode("controls/anti-ice/pitot-heat").getBoolValue()){
#    OutPuts.getNode("pitot-heat",1).setValue(bus_volts);
#        } else {
#    OutPuts.getNode("pitot-heat",1).setValue(0.0);
#        }
#
    if ( props.globals.getNode("controls/lighting/landing-lights").getBoolValue()){
    OutPuts.getNode("landing-lights-norm",1).setValue(bus_volts * NORM);
        } else {
    OutPuts.getNode("landing-lights-norm",1).setValue(0.0);
        }

#    if ( props.globals.getNode("controls/lighting/landing-lights[1]").getBoolValue()){
#    OutPuts.getNode("landing-lights[1]",1).setValue(bus_volts * NORM);
#        } else {
#    OutPuts.getNode("landing-lights[1]",1).setValue(0.0);
#        }
        
#    if ( props.globals.getNode("controls/lighting/cabin-lights").getBoolValue()){
#    OutPuts.getNode("cabin-lights",1).setValue(bus_volts);
#        } else {
#    OutPuts.getNode("cabin-lights",1).setValue(0.0);
#        }

#    if ( props.globals.getNode("controls/lighting/taxi-light").getBoolValue()){
#    OutPuts.getNode("taxi-lights-norm",1).setValue(bus_volts * NORM);
#        } else {
#    OutPuts.getNode("taxi-lights-norm",1).setValue(0.0);
#        }

        if ( props.globals.getNode("controls/lighting/nav-lights").getBoolValue()){
    OutPuts.getNode("nav-lights",1).setValue(bus_volts);
        } else {
    OutPuts.getNode("nav-lights",1).setValue(0.0);
        }

    if ( props.globals.getNode("controls/lighting/strobe").getBoolValue()){
    OutPuts.getNode("strobe",1).setValue(bus_volts);
        } else {
    OutPuts.getNode("strobe",1).setValue(0.0);
        }

    if ( props.globals.getNode("controls/lighting/instrument-lights").getBoolValue()){
        OutPuts.getNode("instrument-lights-norm",1).setValue((bus_volts * NORM) *DIMMER.getValue() );
        } else {
        OutPuts.getNode("instrument-lights-norm",1).setValue(0.0);
        }
    if ( props.globals.getNode("controls/lighting/panel-lights").getBoolValue()){
        OutPuts.getNode("panel-lights-norm",1).setValue((bus_volts * NORM) *PDIMMER.getValue() );
        } else {
        OutPuts.getNode("panel-lights-norm",1).setValue(0.0);
        }
#    OutPuts.getNode("flaps",1).setValue(bus_volts);
#    OutPuts.getNode("warning-lights",1).setValue(bus_volts * NORM);
    OutPuts.getNode("DG",1).setValue(bus_volts);
    OutPuts.getNode("oat",1).setValue(bus_volts);
    OutPuts.getNode("turn-coordinator",1).setValue(bus_volts);
    ebus1_volts = bus_volts;
    return load;
}

#### used in Instruments/source code
# adf : dme : encoder : gps : DG : transponder
# mk-viii : MRG : tacan : turn-coordinator
# nav[0] : nav [1] : comm[0] : comm[1]
####

var avionics_bus = func() {
    bus_volts = arg[0];
    load = 0.0;
    var INSTR = props.globals.getNode("/intrumentation");

        OutPuts.getNode("adf",1).setValue(bus_volts);
        OutPuts.getNode("dme",1).setValue(bus_volts);
        OutPuts.getNode("encoder",1).setValue(bus_volts);
        OutPuts.getNode("gps",1).setValue(bus_volts);
        OutPuts.getNode("transponder",1).setValue(bus_volts);
#        OutPuts.getNode("mk-viii",1).setValue(bus_volts);
        OutPuts.getNode("MRG",1).setValue(bus_volts);
#        OutPuts.getNode("tacan",1).setValue(bus_volts);
        OutPuts.getNode("nav[0]",1).setValue(bus_volts);
        OutPuts.getNode("nav[1]",1).setValue(bus_volts);
        OutPuts.getNode("comm[0]",1).setValue(bus_volts);
        OutPuts.getNode("comm[1]",1).setValue(bus_volts);
#        OutPuts.getNode("KNS80",1).setValue(bus_volts);
    return load;
}

var update_electrical = func {
    if(FDM == 1){
        time = getprop("/sim/time/elapsed-sec");
        dt = time - last_time;
        last_time = time;
        update_virtual_bus( dt );
    }
    settimer(update_electrical, 0);
}

